,noise_multiplier,epsilon,delta,ece,accuracy,auc
0,0.45,53.576561225920514,1e-05,0.013086180771346712,0.5929203539823009,0.4772874712944031
1,0.56,34.02644520987167,1e-05,0.0954675389602121,0.5929203539823009,0.9467877745628357
2,0.7,21.809178814601573,1e-05,0.08884008215591965,0.5929203539823009,0.3131083846092224
3,0.9,13.604510196746144,1e-05,0.14488896226460957,0.5929203539823009,0.9231019020080566
4,1.5,5.826628631428623,1e-05,0.05511058853790818,0.5929203539823009,0.9094743728637695
5,3.5,1.8754951832198352,1e-05,0.05251935678245745,0.5929203539823009,0.17034393548965454
6,5.3,1.1486178148831807,1e-05,0.06039881495247901,0.5929203539823009,0.9704737067222595
7,5.7,1.0564939183908084,1e-05,0.04065119323477273,0.5929203539823009,0.8877352476119995
8,0.45,53.576561225920514,1e-05,0.11626000583699314,0.5929203539823009,0.9847501516342163
9,0.56,34.02644520987167,1e-05,0.08795797244637416,0.5929203539823009,0.5895522236824036
10,0.7,21.809178814601573,1e-05,0.12844274582061088,0.5929203539823009,0.787800133228302
11,0.9,13.604510196746144,1e-05,0.1587831066773001,0.5929203539823009,0.9386761784553528
12,1.5,5.826628631428623,1e-05,0.15538298239750137,0.5929203539823009,0.06099935248494148
13,3.5,1.8754951832198352,1e-05,0.12240678124723181,0.5929203539823009,0.8140817880630493
14,5.3,1.1486178148831807,1e-05,0.08471597770674033,0.5929203539823009,0.03212199732661247
15,5.7,1.0564939183908084,1e-05,0.09418919972613848,0.5929203539823009,0.8977936506271362
16,0.45,53.576561225920514,1e-05,0.10550819245059935,0.5929203539823009,0.5214146375656128
17,0.56,34.02644520987167,1e-05,0.10395873489633067,0.5929203539823009,0.6288124322891235
18,0.7,21.809178814601573,1e-05,0.06411811155555525,0.5929203539823009,0.35918235778808594
19,0.9,13.604510196746144,1e-05,0.07839018053713098,0.5929203539823009,0.7796885371208191
20,1.5,5.826628631428623,1e-05,0.15594835988188205,0.5929203539823009,0.9536015391349792
21,3.5,1.8754951832198352,1e-05,0.09205778510169638,0.5929203539823009,0.13595068454742432
22,5.3,1.1486178148831807,1e-05,0.033470322600508196,0.5929203539823009,0.5389357805252075
23,5.7,1.0564939183908084,1e-05,0.0516595487046031,0.5929203539823009,0.7985074520111084
24,0.45,53.576561225920514,1e-05,0.06519291464206389,0.5929203539823009,0.963659942150116
25,0.56,34.02644520987167,1e-05,0.14893272229000531,0.5929203539823009,0.846852719783783
26,0.7,21.809178814601573,1e-05,0.11346398096168983,0.5929203539823009,0.9740428328514099
27,0.9,13.604510196746144,1e-05,0.057028962447579934,0.5929203539823009,0.9675535559654236
28,1.5,5.826628631428623,1e-05,0.10387635652997851,0.5929203539823009,0.7115509510040283
29,3.5,1.8754951832198352,1e-05,0.0017344134043804083,0.5929203539823009,0.7024659514427185
30,5.3,1.1486178148831807,1e-05,0.044514795320223954,0.5929203539823009,0.4828033745288849
31,5.7,1.0564939183908084,1e-05,0.11011408388087174,0.5929203539823009,0.5324464440345764
32,0.45,53.576561225920514,1e-05,0.0007937487247769992,0.5929203539823009,0.9321869015693665
33,0.56,34.02644520987167,1e-05,0.11693648057701311,0.5929203539823009,0.9672290682792664
34,0.7,21.809178814601573,1e-05,0.09924396635156818,0.5929203539823009,0.8942245244979858
35,0.9,13.604510196746144,1e-05,0.11352922642125485,0.5929203539823009,0.25405579805374146
36,1.5,5.826628631428623,1e-05,0.14988383729900934,0.5929203539823009,0.363400399684906
37,3.5,1.8754951832198352,1e-05,0.07754163720966434,0.5929203539823009,0.47534069418907166
38,5.3,1.1486178148831807,1e-05,0.04848526853375734,0.5929203539823009,0.12556780874729156
39,5.7,1.0564939183908084,1e-05,0.06994878243556057,0.5929203539823009,0.7375081181526184
40,0.45,53.576561225920514,1e-05,0.3461180434817761,0.5929203539823009,0.9402984976768494
41,0.56,34.02644520987167,1e-05,0.042630528454231986,0.5929203539823009,0.5545100569725037
42,0.7,21.809178814601573,1e-05,0.14224808353238394,0.5929203539823009,0.9227774143218994
43,0.9,13.604510196746144,1e-05,0.14455991403191493,0.5929203539823009,0.14016872644424438
44,1.5,5.826628631428623,1e-05,0.12289973275851351,0.5929203539823009,0.5710577368736267
45,3.5,1.8754951832198352,1e-05,0.0956616464969331,0.5929203539823009,0.5373134613037109
46,5.3,1.1486178148831807,1e-05,0.10092554999663761,0.5929203539823009,0.2751460075378418
47,5.7,1.0564939183908084,1e-05,0.02837578860004386,0.5929203539823009,0.33225178718566895
48,0.45,53.576561225920514,1e-05,0.17692614709381504,0.5929203539823009,0.7290720343589783
49,0.56,34.02644520987167,1e-05,0.019670121437680432,0.5929203539823009,0.9626865386962891
50,0.7,21.809178814601573,1e-05,0.041797046112803216,0.5929203539823009,0.9717715978622437
51,0.9,13.604510196746144,1e-05,0.3450230391679612,0.5929203539823009,0.06716418266296387
52,1.5,5.826628631428623,1e-05,0.08177241445642658,0.5929203539823009,0.9425697326660156
53,3.5,1.8754951832198352,1e-05,0.006078543388738034,0.5929203539823009,0.9133679270744324
54,5.3,1.1486178148831807,1e-05,0.08645635579539612,0.5929203539823009,0.45360156893730164
55,5.7,1.0564939183908084,1e-05,0.015180748120873333,0.5929203539823009,0.7235561609268188
56,0.45,53.576561225920514,1e-05,0.10457540296875267,0.5929203539823009,0.8264114260673523
57,0.56,34.02644520987167,1e-05,0.08529835200942715,0.5929203539823009,0.9746917486190796
58,0.7,21.809178814601573,1e-05,0.11066677085066268,0.5929203539823009,0.965931236743927
59,0.9,13.604510196746144,1e-05,0.003398901065893911,0.5929203539823009,0.8848150372505188
60,1.5,5.826628631428623,1e-05,0.11854727394812925,0.5929203539823009,0.08500973135232925
61,3.5,1.8754951832198352,1e-05,0.13070682772492936,0.5929203539823009,0.016223231330513954
62,5.3,1.1486178148831807,1e-05,0.16362082483494178,0.5929203539823009,0.8744322061538696
63,5.7,1.0564939183908084,1e-05,0.07362519850773086,0.5929203539823009,0.29526281356811523
64,0.45,53.576561225920514,1e-05,0.042520342674930545,0.5929203539823009,0.6632056832313538
65,0.56,34.02644520987167,1e-05,0.08399910842422886,0.5929203539823009,0.3040233552455902
66,0.7,21.809178814601573,1e-05,0.09067348305102996,0.5929203539823009,0.9305645823478699
67,0.9,13.604510196746144,1e-05,0.08095812270071656,0.5929203539823009,0.6353017687797546
68,1.5,5.826628631428623,1e-05,0.003788370474249958,0.5929203539823009,0.15444517135620117
69,3.5,1.8754951832198352,1e-05,0.13958429340767642,0.5929203539823009,0.8841661214828491
70,5.3,1.1486178148831807,1e-05,0.04971084921760893,0.5929203539823009,0.2852044105529785
71,5.7,1.0564939183908084,1e-05,0.03402159171821795,0.5929203539823009,0.7280175089836121
72,0.45,53.576561225920514,1e-05,0.002321286011586099,0.5929203539823009,0.9308890104293823
73,0.56,34.02644520987167,1e-05,0.16929716241043224,0.5929203539823009,0.6372485160827637
74,0.7,21.809178814601573,1e-05,0.08278764243674486,0.5929203539823009,0.5171155333518982
75,0.9,13.604510196746144,1e-05,0.02246391931466296,0.5929203539823009,0.35723555088043213
76,1.5,5.826628631428623,1e-05,0.01370549096470386,0.5929203539823009,0.8708630800247192
77,3.5,1.8754951832198352,1e-05,0.06383906634507974,0.5929203539823009,0.7913692593574524
78,5.3,1.1486178148831807,1e-05,0.1488191791340313,0.5929203539823009,0.744321882724762
79,5.7,1.0564939183908084,1e-05,0.0680685781799586,0.5929203539823009,0.8192731738090515
