,noise_multiplier,epsilon,delta,ece,accuracy,auc
0,0.45,34.8749015624323,1e-05,0.3767544008210301,0.4488,0.8466134071350098
1,0.56,15.425292927679378,1e-05,0.4373940889254212,0.4088,0.8130083084106445
2,0.7,7.353433092528645,1e-05,0.4001918238282204,0.4235,0.8164594769477844
3,0.9,3.833985081271189,1e-05,0.4247854043766856,0.4021,0.8010149002075195
4,1.5,1.6206308210819351,1e-05,0.4392010656490922,0.3739,0.7853544354438782
5,3.5,0.5739584205726583,1e-05,0.4549612290978432,0.3793,0.7943001985549927
6,5.3,0.3611518510595663,1e-05,0.5339001613587141,0.2881,0.6995394825935364
7,5.7,0.333327861401164,1e-05,0.4738400967642664,0.3118,0.7191597819328308
8,0.45,34.8749015624323,1e-05,0.4137013510689139,0.4378,0.8390901684761047
9,0.56,15.425292927679378,1e-05,0.46371971351802355,0.3802,0.730475902557373
10,0.7,7.353433092528645,1e-05,0.40114524190127854,0.4165,0.8190735578536987
11,0.9,3.833985081271189,1e-05,0.42384035307317974,0.4184,0.8233267664909363
12,1.5,1.6206308210819351,1e-05,0.4272244146481156,0.3598,0.7661195993423462
13,3.5,0.5739584205726583,1e-05,0.4450721669271588,0.3774,0.7892609238624573
14,5.3,0.3611518510595663,1e-05,0.4771024165719747,0.3308,0.7418416738510132
15,5.7,0.333327861401164,1e-05,0.4885952285394073,0.3226,0.7491055727005005
16,0.45,34.8749015624323,1e-05,0.3590511420220137,0.4521,0.8487815856933594
17,0.56,15.425292927679378,1e-05,0.41909014422297475,0.4072,0.8136485815048218
18,0.7,7.353433092528645,1e-05,0.4329056014567613,0.4111,0.8214338421821594
19,0.9,3.833985081271189,1e-05,0.42116568990945813,0.4001,0.7938302755355835
20,1.5,1.6206308210819351,1e-05,0.4244210905760527,0.4144,0.8196640014648438
21,3.5,0.5739584205726583,1e-05,0.4789025736480952,0.3173,0.7347428202629089
22,5.3,0.3611518510595663,1e-05,0.5077848410084844,0.3305,0.7473935484886169
23,5.7,0.333327861401164,1e-05,0.4701574467137456,0.331,0.7403256297111511
24,0.45,34.8749015624323,1e-05,0.425767419552803,0.4286,0.8329960107803345
25,0.56,15.425292927679378,1e-05,0.4243024357765913,0.4326,0.8275125622749329
26,0.7,7.353433092528645,1e-05,0.475995291903615,0.397,0.7914525270462036
27,0.9,3.833985081271189,1e-05,0.40661029850840574,0.4165,0.8177469372749329
28,1.5,1.6206308210819351,1e-05,0.47823729087859396,0.3605,0.7679182291030884
29,3.5,0.5739584205726583,1e-05,0.43758576411455863,0.3829,0.7926848530769348
30,5.3,0.3611518510595663,1e-05,0.5180316816389561,0.3151,0.733268678188324
31,5.7,0.333327861401164,1e-05,0.49035646760165696,0.2906,0.7201007604598999
32,0.45,34.8749015624323,1e-05,0.3928002681612968,0.4464,0.8408377766609192
33,0.56,15.425292927679378,1e-05,0.42800155342072244,0.4146,0.8072215914726257
34,0.7,7.353433092528645,1e-05,0.40880371246188885,0.4149,0.8170232772827148
35,0.9,3.833985081271189,1e-05,0.40268641726523646,0.4357,0.8340005874633789
36,1.5,1.6206308210819351,1e-05,0.46667142573595044,0.3704,0.7760437726974487
37,3.5,0.5739584205726583,1e-05,0.4606884258970618,0.3619,0.7647768259048462
38,5.3,0.3611518510595663,1e-05,0.4768900953561067,0.3436,0.7509710192680359
39,5.7,0.333327861401164,1e-05,0.4661979445144534,0.3403,0.7468929290771484
