,noise_multiplier,epsilon,delta,ece,accuracy,auc
0,0.7,14.600540056108338,0.0001,0.16898422577069142,0.765,0.7391220331192017
1,0.9,8.031471607705274,0.0001,0.15910990047501397,0.765,0.7438711524009705
2,1.5,3.208715586067125,0.0001,0.15350265471264724,0.75,0.7474008798599243
3,0.7,14.600540056108338,0.0001,0.16906256615184245,0.77,0.7396354675292969
4,0.9,8.031471607705274,0.0001,0.17572574906516822,0.74,0.728661298751831
5,1.5,3.208715586067125,0.0001,0.15821375302970406,0.76,0.7416249513626099
6,0.7,14.600540056108338,0.0001,0.17338651047088205,0.745,0.7318701148033142
7,0.9,8.031471607705274,0.0001,0.16541962748393413,0.745,0.7341804504394531
8,1.5,3.208715586067125,0.0001,0.16473344137892126,0.74,0.7230137586593628
9,0.7,14.600540056108338,0.0001,0.173436394284945,0.76,0.7398921847343445
10,0.9,8.031471607705274,0.0001,0.18390715382527556,0.775,0.7276986241340637
11,1.5,3.208715586067125,0.0001,0.18330152496695515,0.73,0.7490052580833435
12,0.7,14.600540056108338,0.0001,0.17690777040901595,0.765,0.7225645184516907
13,0.9,8.031471607705274,0.0001,0.1626592085929588,0.775,0.7273777723312378
14,1.5,3.208715586067125,0.0001,0.16396202380768954,0.77,0.7333462238311768
15,0.7,14.600540056108338,0.0001,0.17947119844262488,0.78,0.7404698133468628
16,0.9,8.031471607705274,0.0001,0.1826096509466879,0.735,0.738095223903656
17,1.5,3.208715586067125,0.0001,0.15753489701077344,0.765,0.7316775321960449
18,0.7,14.600540056108338,0.0001,0.16921625400311316,0.75,0.7489410638809204
19,0.9,8.031471607705274,0.0001,0.18118882363312877,0.755,0.7394429445266724
20,1.5,3.208715586067125,0.0001,0.19823263634927574,0.74,0.7282119989395142
21,0.7,14.600540056108338,0.0001,0.17997963203786638,0.75,0.7431010007858276
22,0.9,8.031471607705274,0.0001,0.1715620163921267,0.75,0.746823251247406
23,1.5,3.208715586067125,0.0001,0.1648451626673341,0.75,0.741689145565033
24,0.7,14.600540056108338,0.0001,0.19289164020097818,0.755,0.7457964420318604
25,0.9,8.031471607705274,0.0001,0.16153231377480548,0.77,0.7459247708320618
26,1.5,3.208715586067125,0.0001,0.17280404828488827,0.73,0.721858561038971
27,0.7,14.600540056108338,0.0001,0.19214155895402657,0.755,0.7402772903442383
28,0.9,8.031471607705274,0.0001,0.17797490741126246,0.76,0.7307790517807007
29,1.5,3.208715586067125,0.0001,0.17558971537277107,0.725,0.7169169187545776
