,noise_multiplier,epsilon,delta,ece,accuracy,auc
0,0.7,1.273482964349529,0.0001,0.0448173207038999,0.9512444595976816,0.986919641494751
1,0.9,0.6486022615924403,0.0001,0.043103018401035524,0.9539720422775315,0.9867618083953857
2,1.5,0.20425447401030414,0.0001,0.04957725149551341,0.9456188203204909,0.9846258163452148
3,0.7,1.273505282364551,0.0001,0.04307742092174445,0.9515854074326628,0.9877675771713257
4,0.9,0.6486269723868046,0.0001,0.043746242082092435,0.951926355267644,0.9858475923538208
5,1.5,0.20425974859668009,0.0001,0.045758433644831065,0.9480054551653597,0.9853772521018982
6,0.7,1.2734718053420178,0.0001,0.04804838859319417,0.9500511421752472,0.9867835640907288
7,0.9,0.6486269723868046,0.0001,0.04773990251342599,0.9493692465052846,0.9870398044586182
8,1.5,0.20426150679213873,0.0001,0.05363621805568785,0.9413569723832254,0.9846118688583374
9,0.7,1.2734718053420178,0.0001,0.04422878094640119,0.9497101943402659,0.9870685935020447
10,0.9,0.6486128519328821,0.0001,0.04158215391405566,0.9534606205250596,0.9872279167175293
11,1.5,0.20426502318305606,0.0001,0.04796247650529471,0.9471530855779066,0.9842830896377563
12,0.7,1.27349412335704,0.0001,0.045144628646358216,0.951926355267644,0.9873945713043213
13,0.9,0.6486340326137657,0.0001,0.050350470471462766,0.9456188203204909,0.9855242967605591
14,1.5,0.20426150679213873,0.0001,0.047101117578802906,0.9463007159904535,0.9852239489555359
15,0.7,1.2734885438532844,0.0001,0.04152277624998066,0.9541425161950222,0.9878197312355042
16,0.9,0.6486375627272464,0.0001,0.047887769192629784,0.9480054551653597,0.9868555068969727
17,1.5,0.20426502318305606,0.0001,0.04995388425342758,0.9434026593931129,0.9840924739837646
18,0.7,1.27349412335704,0.0001,0.043065586553749285,0.9543129901125128,0.9877048134803772
19,0.9,0.6486305025002852,0.0001,0.046847628655023205,0.9495397204227753,0.9857407212257385
20,1.5,0.20425974859668009,0.0001,0.04646274241683101,0.9480054551653597,0.9857723712921143
21,0.7,1.2735108618683064,0.0001,0.04199126923897071,0.9551653596999659,0.9876996278762817
22,0.9,0.6486234422733239,0.0001,0.050838720704354926,0.9435731333106034,0.9863446950912476
23,1.5,0.20425974859668009,0.0001,0.047571690871958325,0.944255028980566,0.9853321313858032
24,0.7,1.2734885438532844,0.0001,0.04256643274866027,0.9529491987725878,0.9874711632728577
25,0.9,0.6486199121598434,0.0001,0.048223723873084774,0.9485168769178316,0.9871425628662109
26,1.5,0.20425623220576278,0.0001,0.048226947941100176,0.9456188203204909,0.9855318069458008
27,0.7,1.273482964349529,0.0001,0.04810446546415825,0.9500511421752472,0.9875402450561523
28,0.9,0.6486305025002852,0.0001,0.047842990470645747,0.9485168769178316,0.9868054389953613
29,1.5,0.20426150679213873,0.0001,0.04622657795965561,0.9483464030003409,0.985572099685669
