,noise_multiplier,epsilon,delta,ece,accuracy,auc
0,0.45,13.68735733564043,0.0001,0.2173381203709685,0.497737556561086,0.7908015847206116
1,0.56,5.949272030175007,0.0001,0.07584786610635696,0.502262443438914,0.7662059664726257
2,0.7,2.7277861810405573,0.0001,0.18232447023575124,0.6911764705882353,0.7793611884117126
3,0.9,1.3262343288467682,0.0001,0.055874119988933435,0.497737556561086,0.7272676229476929
4,1.5,0.5156656637282808,0.0001,0.04821258297872755,0.497737556561086,0.7398930191993713
5,3.5,0.17836668052701085,0.0001,0.023294114452951098,0.5282805429864253,0.6976146697998047
6,5.3,0.11439056893279306,0.0001,0.056466247633571554,0.497737556561086,0.5854166746139526
7,5.7,0.10766943224269027,0.0001,0.06390146338022673,0.502262443438914,0.5749449729919434
8,0.45,13.689566987543495,0.0001,0.09042270589468165,0.6142533936651584,0.7979371547698975
9,0.56,5.949272030175007,0.0001,0.11988598344282864,0.497737556561086,0.7720580101013184
10,0.7,2.7277861810405573,0.0001,0.17481323163029294,0.6866515837104072,0.8012285232543945
11,0.9,1.3260474621086946,0.0001,0.1294246089404524,0.497737556561086,0.7339028120040894
12,1.5,0.5157191656226987,0.0001,0.08401228730225452,0.497737556561086,0.6860321760177612
13,3.5,0.178385245458521,0.0001,0.054113780953226054,0.497737556561086,0.5588310956954956
14,5.3,0.11439056893279306,0.0001,0.09484395411758936,0.497737556561086,0.6133497357368469
15,5.7,0.1076615323274005,0.0001,0.05114760745434743,0.497737556561086,0.5662328004837036
16,0.45,13.689566987543495,0.0001,0.20847870621880799,0.502262443438914,0.7769272327423096
17,0.56,5.94887930925037,0.0001,0.1801472743172451,0.6957013574660633,0.7824119329452515
18,0.7,2.7276173802067247,0.0001,0.0475624732976585,0.497737556561086,0.7823556661605835
19,0.9,1.326327762215805,0.0001,0.03167370042649864,0.497737556561086,0.8058878183364868
20,1.5,0.5156656637282808,0.0001,0.052115837777901554,0.5599547511312217,0.7167075872421265
21,3.5,0.17836668052701085,0.0001,0.05069734769708967,0.497737556561086,0.7251074910163879
22,5.3,0.11438140130148874,0.0001,0.05800600889311658,0.497737556561086,0.6272982954978943
23,5.7,0.1076615323274005,0.0001,0.020991598116866017,0.497737556561086,0.5402283072471619
24,0.45,13.68735733564043,0.0001,0.059423102108062134,0.497737556561086,0.7711507081985474
25,0.56,5.949272030175007,0.0001,0.15047057178630002,0.502262443438914,0.760995090007782
26,0.7,2.7276173802067247,0.0001,0.03147088598072262,0.502262443438914,0.78125
27,0.9,1.3260474621086946,0.0001,0.11906622707574074,0.497737556561086,0.7562346458435059
28,1.5,0.5157191656226987,0.0001,0.048221749620200316,0.497737556561086,0.6721014976501465
29,3.5,0.178385245458521,0.0001,0.1090717554362111,0.497737556561086,0.6609771847724915
30,5.3,0.11440890419540173,0.0001,0.06122529621307671,0.497737556561086,0.6409512758255005
31,5.7,0.10766943224269027,0.0001,0.08916939424173864,0.497737556561086,0.6359029412269592
32,0.45,13.688462161591962,0.0001,0.14692906522912677,0.665158371040724,0.7892096638679504
33,0.56,5.948486588325733,0.0001,0.19746643419449147,0.497737556561086,0.7772394418716431
34,0.7,2.7277861810405573,0.0001,0.12716010226383473,0.497737556561086,0.7918304800987244
35,0.9,1.3262343288467682,0.0001,0.2102521021441637,0.497737556561086,0.759058952331543
36,1.5,0.5156121618338629,0.0001,0.02215746308074279,0.502262443438914,0.7339847087860107
37,3.5,0.178385245458521,0.0001,0.05475670004861921,0.497737556561086,0.5974675416946411
38,5.3,0.11439973656409738,0.0001,0.02582413969536168,0.497737556561086,0.49967241287231445
39,5.7,0.10766943224269027,0.0001,0.021865297260597272,0.502262443438914,0.5204392075538635
40,0.45,13.690671813495028,0.0001,0.10986112236841773,0.502262443438914,0.7931869626045227
41,0.56,5.949272030175007,0.0001,0.08253922970855937,0.497737556561086,0.760959267616272
42,0.7,2.7279549818743893,0.0001,0.18874676195205065,0.497737556561086,0.6885083913803101
43,0.9,1.3261408954777314,0.0001,0.04667593134204728,0.497737556561086,0.7151233553886414
44,1.5,0.5157726675171164,0.0001,0.03845319691286908,0.497737556561086,0.7422745227813721
45,3.5,0.178385245458521,0.0001,0.029352326468644607,0.497737556561086,0.5846245288848877
46,5.3,0.11436306603888008,0.0001,0.032567984580454235,0.502262443438914,0.5536573529243469
47,5.7,0.1076615323274005,0.0001,0.017541970669953555,0.502262443438914,0.6331234574317932
48,0.45,13.688462161591962,0.0001,0.04858832330995011,0.497737556561086,0.7962377071380615
49,0.56,5.94887930925037,0.0001,0.12804833641149338,0.497737556561086,0.767013430595398
50,0.7,2.7277861810405573,0.0001,0.14424527102735785,0.497737556561086,0.7761696577072144
51,0.9,1.3261408954777314,0.0001,0.11193136628127204,0.497737556561086,0.7559940814971924
52,1.5,0.5156656637282808,0.0001,0.04712538407668809,0.497737556561086,0.6973100900650024
53,3.5,0.17834811559550068,0.0001,0.04068996157176896,0.502262443438914,0.6647189855575562
54,5.3,0.11439973656409738,0.0001,0.011261091175661875,0.497737556561086,0.5988073348999023
55,5.7,0.10765363241211076,0.0001,0.030724558355581688,0.502262443438914,0.6778101921081543
56,0.45,13.686252509688897,0.0001,0.03317283178211877,0.5135746606334841,0.7863290309906006
57,0.56,5.949664751099644,0.0001,0.025953164872001187,0.5271493212669683,0.7861512303352356
58,0.7,2.7277861810405573,0.0001,0.08303793300600606,0.497737556561086,0.7695075869560242
59,0.9,1.3261408954777314,0.0001,0.05333483414682327,0.497737556561086,0.7713349461555481
60,1.5,0.5157191656226987,0.0001,0.05986142131537875,0.497737556561086,0.6222333312034607
61,3.5,0.17834811559550068,0.0001,0.16882976087240076,0.497737556561086,0.47212326526641846
62,5.3,0.11438140130148874,0.0001,0.0809576207291487,0.497737556561086,0.5901080369949341
63,5.7,0.10765363241211076,0.0001,0.01477744265109704,0.497737556561086,0.5363994836807251
64,0.45,13.68735733564043,0.0001,0.0771295276904538,0.502262443438914,0.7821099758148193
65,0.56,5.949272030175007,0.0001,0.039537327490510976,0.502262443438914,0.7799267768859863
66,0.7,2.7277861810405573,0.0001,0.20086293266369745,0.497737556561086,0.7705607414245605
67,0.9,1.326327762215805,0.0001,0.045537772053237446,0.502262443438914,0.7298756241798401
68,1.5,0.5157191656226987,0.0001,0.08000912106010172,0.502262443438914,0.7192784547805786
69,3.5,0.178385245458521,0.0001,0.05734054494767166,0.502262443438914,0.6421952247619629
70,5.3,0.11439973656409738,0.0001,0.06932986254605766,0.497737556561086,0.622631311416626
71,5.7,0.10765363241211076,0.0001,0.019085823747906794,0.497737556561086,0.4929553270339966
72,0.45,13.68735733564043,0.0001,0.16188044454986694,0.502262443438914,0.8080658912658691
73,0.56,5.949272030175007,0.0001,0.021595548282111972,0.5260180995475113,0.8020833134651184
74,0.7,2.7279549818743893,0.0001,0.06441069640455205,0.502262443438914,0.7912430763244629
75,0.9,1.326327762215805,0.0001,0.144316812884484,0.502262443438914,0.7701704502105713
76,1.5,0.5155586599394453,0.0001,0.033599867236830006,0.502262443438914,0.701671302318573
77,3.5,0.1783295506639905,0.0001,0.08669768118750454,0.497737556561086,0.5273149013519287
78,5.3,0.11438140130148874,0.0001,0.009172532319752902,0.502262443438914,0.6107801198959351
79,5.7,0.1076615323274005,0.0001,0.09692109433504247,0.497737556561086,0.4913467466831207
