,noise_multiplier,epsilon,delta,ece,accuracy,auc
0,0.7,1.4420993904227521,0.0001,0.08484646975982468,0.8101666666666667,0.6411698460578918
1,0.9,0.7559854500923999,0.0001,0.07994791917023637,0.8038333333333333,0.6500710248947144
2,1.5,0.2628545747868539,0.0001,0.07551022265816573,0.7971666666666667,0.6144862174987793
3,0.7,1.4421423687103425,0.0001,0.07907211923680735,0.8133333333333334,0.6953775882720947
4,0.9,0.7559822323504177,0.0001,0.08301170581633534,0.8083333333333333,0.6471264362335205
5,1.5,0.2628445330476483,0.0001,0.08817315166560002,0.803,0.6524714231491089
6,0.7,1.4421375933450546,0.0001,0.09863805145203756,0.803,0.6938532590866089
7,0.9,0.7559822323504177,0.0001,0.07821425210548717,0.8108333333333333,0.6513695120811462
8,1.5,0.26284118580124644,0.0001,0.07965897474545636,0.8046666666666666,0.6682794094085693
9,0.7,1.4421232672491913,0.0001,0.0766879381874266,0.8166666666666667,0.6651285290718079
10,0.9,0.756001538802311,0.0001,0.09128076130923969,0.8073333333333333,0.6622893810272217
11,1.5,0.2628428594244474,0.0001,0.1047185441739275,0.7941666666666667,0.6437221765518188
12,0.7,1.4421375933450546,0.0001,0.08150735453683107,0.8068333333333333,0.6604187488555908
13,0.9,0.7559918855763643,0.0001,0.09121330455007652,0.8088333333333333,0.6778843402862549
14,1.5,0.26285122754045204,0.0001,0.06732033518077031,0.8008333333333333,0.655965268611908
15,0.7,1.4420993904227521,0.0001,0.09229796005102496,0.8081666666666667,0.6704121828079224
16,0.9,0.7559532726725776,0.0001,0.08971900796649666,0.8108333333333333,0.672724723815918
17,1.5,0.26285122754045204,0.0001,0.08251730966098453,0.7963333333333333,0.6468331813812256
18,0.7,1.4421232672491913,0.0001,0.08590422098643226,0.8103333333333333,0.6788606643676758
19,0.9,0.7559854500923999,0.0001,0.08611517775920219,0.8121666666666667,0.6823419332504272
20,1.5,0.26283616493164363,0.0001,0.08883878458077135,0.799,0.6517834663391113
21,0.7,1.442156694806206,0.0001,0.08608285955390116,0.8141666666666667,0.6940429210662842
22,0.9,0.7559918855763643,0.0001,0.07691205789952074,0.8091666666666667,0.6669087409973145
23,1.5,0.2628478802940502,0.0001,0.09753005079234328,0.7928333333333333,0.6153400540351868
24,0.7,1.4421184918839034,0.0001,0.09997126271075105,0.8095,0.6621562838554382
25,0.9,0.7560111920282577,0.0001,0.07895801929212759,0.8068333333333333,0.6604195833206177
26,1.5,0.2628462066708493,0.0001,0.08920085452054387,0.7986666666666666,0.6324676871299744
27,0.7,1.4421137165186155,0.0001,0.06979963201249485,0.8018333333333333,0.6573262214660645
28,0.9,0.7560079742862754,0.0001,0.06403451053262688,0.8058333333333333,0.6423417329788208
29,1.5,0.2628462066708493,0.0001,0.07385366964022007,0.7983333333333333,0.5994957685470581
