\headcommand {\slideentry {0}{0}{1}{1/1}{}{0}}
\headcommand {\beamer@framepages {1}{1}}
\headcommand {\slideentry {0}{0}{2}{2/2}{}{0}}
\headcommand {\beamer@framepages {2}{2}}
\headcommand {\beamer@sectionpages {1}{2}}
\headcommand {\beamer@subsectionpages {1}{2}}
\headcommand {\sectionentry {1}{Motivation and results}{3}{Motivation and results}{0}}
\headcommand {\slideentry {1}{0}{1}{3/3}{}{0}}
\headcommand {\beamer@framepages {3}{3}}
\headcommand {\slideentry {1}{0}{2}{4/4}{}{0}}
\headcommand {\beamer@framepages {4}{4}}
\headcommand {\slideentry {1}{0}{3}{5/5}{}{0}}
\headcommand {\beamer@framepages {5}{5}}
\headcommand {\beamer@sectionpages {3}{5}}
\headcommand {\beamer@subsectionpages {3}{5}}
\headcommand {\sectionentry {2}{Definitions}{6}{Definitions}{0}}
\headcommand {\slideentry {2}{0}{1}{6/6}{}{0}}
\headcommand {\beamer@framepages {6}{6}}
\headcommand {\slideentry {2}{0}{2}{7/7}{}{0}}
\headcommand {\beamer@framepages {7}{7}}
\headcommand {\beamer@sectionpages {6}{7}}
\headcommand {\beamer@subsectionpages {6}{7}}
\headcommand {\sectionentry {3}{Private ECDF}{8}{Private ECDF}{0}}
\headcommand {\slideentry {3}{0}{1}{8/8}{}{0}}
\headcommand {\beamer@framepages {8}{8}}
\headcommand {\slideentry {3}{0}{2}{9/9}{}{0}}
\headcommand {\beamer@framepages {9}{9}}
\headcommand {\slideentry {3}{0}{3}{10/10}{}{0}}
\headcommand {\beamer@framepages {10}{10}}
\headcommand {\slideentry {3}{0}{4}{11/11}{}{0}}
\headcommand {\beamer@framepages {11}{11}}
\headcommand {\slideentry {3}{0}{5}{12/12}{}{0}}
\headcommand {\beamer@framepages {12}{12}}
\headcommand {\slideentry {3}{0}{6}{13/13}{}{0}}
\headcommand {\beamer@framepages {13}{13}}
\headcommand {\slideentry {3}{0}{7}{14/14}{}{0}}
\headcommand {\beamer@framepages {14}{14}}
\headcommand {\slideentry {3}{0}{8}{15/15}{}{0}}
\headcommand {\beamer@framepages {15}{15}}
\headcommand {\slideentry {3}{0}{9}{16/16}{}{0}}
\headcommand {\beamer@framepages {16}{16}}
\headcommand {\slideentry {3}{0}{10}{17/17}{}{0}}
\headcommand {\beamer@framepages {17}{17}}
\headcommand {\slideentry {3}{0}{11}{18/18}{}{0}}
\headcommand {\beamer@framepages {18}{18}}
\headcommand {\beamer@sectionpages {8}{18}}
\headcommand {\beamer@subsectionpages {8}{18}}
\headcommand {\sectionentry {4}{Smooth private ECDF}{19}{Smooth private ECDF}{0}}
\headcommand {\slideentry {4}{0}{1}{19/19}{}{0}}
\headcommand {\beamer@framepages {19}{19}}
\headcommand {\slideentry {4}{0}{2}{20/20}{}{0}}
\headcommand {\beamer@framepages {20}{20}}
\headcommand {\slideentry {4}{0}{3}{21/21}{}{0}}
\headcommand {\beamer@framepages {21}{21}}
\headcommand {\slideentry {4}{0}{4}{22/22}{}{0}}
\headcommand {\beamer@framepages {22}{22}}
\headcommand {\beamer@sectionpages {19}{22}}
\headcommand {\beamer@subsectionpages {19}{22}}
\headcommand {\sectionentry {5}{Algorithm}{23}{Algorithm}{0}}
\headcommand {\slideentry {5}{0}{1}{23/23}{}{0}}
\headcommand {\beamer@framepages {23}{23}}
\headcommand {\slideentry {5}{0}{2}{24/24}{}{0}}
\headcommand {\beamer@framepages {24}{24}}
\headcommand {\slideentry {5}{0}{3}{25/25}{}{0}}
\headcommand {\beamer@framepages {25}{25}}
\headcommand {\slideentry {5}{0}{4}{26/26}{}{0}}
\headcommand {\beamer@framepages {26}{26}}
\headcommand {\beamer@sectionpages {23}{26}}
\headcommand {\beamer@subsectionpages {23}{26}}
\headcommand {\sectionentry {6}{Applications}{27}{Applications}{0}}
\headcommand {\slideentry {6}{0}{1}{27/27}{}{0}}
\headcommand {\beamer@framepages {27}{27}}
\headcommand {\slideentry {6}{0}{2}{28/28}{}{0}}
\headcommand {\beamer@framepages {28}{28}}
\headcommand {\slideentry {6}{0}{3}{29/29}{}{0}}
\headcommand {\beamer@framepages {29}{29}}
\headcommand {\slideentry {6}{0}{4}{30/30}{}{0}}
\headcommand {\beamer@framepages {30}{30}}
\headcommand {\slideentry {6}{0}{5}{31/31}{}{0}}
\headcommand {\beamer@framepages {31}{31}}
\headcommand {\slideentry {6}{0}{6}{32/32}{}{0}}
\headcommand {\beamer@framepages {32}{32}}
\headcommand {\slideentry {6}{0}{7}{33/33}{}{0}}
\headcommand {\beamer@framepages {33}{33}}
\headcommand {\slideentry {6}{0}{8}{34/34}{}{0}}
\headcommand {\beamer@framepages {34}{34}}
\headcommand {\beamer@sectionpages {27}{34}}
\headcommand {\beamer@subsectionpages {27}{34}}
\headcommand {\sectionentry {7}{Conclusion}{35}{Conclusion}{0}}
\headcommand {\slideentry {7}{0}{1}{35/35}{}{0}}
\headcommand {\beamer@framepages {35}{35}}
\headcommand {\beamer@partpages {1}{35}}
\headcommand {\beamer@subsectionpages {35}{35}}
\headcommand {\beamer@sectionpages {35}{35}}
\headcommand {\beamer@documentpages {35}}
\headcommand {\gdef \inserttotalframenumber {35}}
