,noise_multiplier,epsilon,delta,ece,accuracy,auc
0,0.45,34.8749015624323,1e-05,0.09010766617059707,0.2886,0.7415598630905151
1,0.7,7.353433092528645,1e-05,0.08143436965271832,0.2575,0.7298815250396729
2,0.9,3.833985081271189,1e-05,0.07338287912607194,0.2383,0.7022280693054199
3,1.5,1.6206308210819351,1e-05,0.04577783022969959,0.1963,0.6666996479034424
4,3.5,0.5739584205726583,1e-05,0.026678714651614435,0.1097,0.5386033058166504
5,5.7,0.333327861401164,1e-05,0.05152500754147769,0.0803,0.49557167291641235
6,0.45,34.8749015624323,1e-05,0.077977261184901,0.3019,0.7467267513275146
7,0.7,7.353433092528645,1e-05,0.07802453539818527,0.2627,0.728412926197052
8,0.9,3.833985081271189,1e-05,0.033941056749969716,0.1873,0.6747809648513794
9,1.5,1.6206308210819351,1e-05,0.028473305030167092,0.1864,0.657920241355896
10,3.5,0.5739584205726583,1e-05,0.004556822513043888,0.1375,0.5816478729248047
11,5.7,0.333327861401164,1e-05,0.016950251372158536,0.1148,0.5246264338493347
12,0.45,34.8749015624323,1e-05,0.09167303944304586,0.3061,0.7551982998847961
13,0.7,7.353433092528645,1e-05,0.07643973399400711,0.2453,0.7169238924980164
14,0.9,3.833985081271189,1e-05,0.046430678939074266,0.2099,0.6875289082527161
15,1.5,1.6206308210819351,1e-05,0.03751038733273745,0.1841,0.6227020025253296
16,3.5,0.5739584205726583,1e-05,0.0067667486622929535,0.1272,0.5643757581710815
17,5.7,0.333327861401164,1e-05,0.009902380765974522,0.1184,0.5443792343139648
