,noise_multiplier,epsilon,delta,ece,accuracy,auc
0,0.7,2.0089907147111545,0.0001,0.20603494771860487,0.7803333333333333,0.6493738293647766
1,0.9,0.982774874707259,0.0001,0.22022311660918997,0.7748333333333334,0.5481249690055847
2,1.5,0.3556529762521159,0.0001,0.21899900812422088,0.7746666666666666,0.6503291130065918
3,0.7,2.0089907147111545,0.0001,0.22170669507729387,0.7748333333333334,0.6195265054702759
4,0.9,0.982774874707259,0.0001,0.2223185771135062,0.7751666666666667,0.6046077013015747
5,1.5,0.3556529762521159,0.0001,0.2239854537525285,0.7748333333333334,0.5561895370483398
6,0.7,2.0089907147111545,0.0001,0.22373800785213585,0.7748333333333334,0.5952268838882446
7,0.9,0.982774874707259,0.0001,0.22400827506351137,0.7748333333333334,0.5532933473587036
8,1.5,0.3556529762521159,0.0001,0.22362887635009815,0.7748333333333334,0.566831111907959
9,0.7,2.0089907147111545,0.0001,0.21031978222559722,0.7775,0.6485646367073059
10,0.9,0.982774874707259,0.0001,0.2216242898450915,0.7751666666666667,0.6200937032699585
11,1.5,0.3556529762521159,0.0001,0.22330780535980949,0.7748333333333334,0.5678163766860962
12,0.7,2.0089907147111545,0.0001,0.22354853292733723,0.7748333333333334,0.6105632781982422
13,0.9,0.982774874707259,0.0001,0.21704381663337233,0.7761666666666667,0.5690615177154541
14,1.5,0.3556529762521159,0.0001,0.22316263237012837,0.7751666666666667,0.5893082022666931
15,0.7,2.0089907147111545,0.0001,0.22042776755105417,0.7745,0.6364395618438721
16,0.9,0.982774874707259,0.0001,0.22442935532535443,0.7748333333333334,0.547174870967865
17,1.5,0.3556529762521159,0.0001,0.22371127464498236,0.775,0.5712990760803223
18,0.7,2.0089907147111545,0.0001,0.2200184559117826,0.7751666666666667,0.6291593313217163
19,0.9,0.982774874707259,0.0001,0.22278257066296886,0.7743333333333333,0.5989062190055847
20,1.5,0.3556529762521159,0.0001,0.22302674384719232,0.7746666666666666,0.5758510828018188
21,0.7,2.0089907147111545,0.0001,0.22163329096684664,0.7748333333333334,0.6093249320983887
22,0.9,0.982774874707259,0.0001,0.22372370712583398,0.7748333333333334,0.5547576546669006
23,1.5,0.3556529762521159,0.0001,0.22150851989203785,0.7748333333333334,0.5721398591995239
24,0.7,2.0089907147111545,0.0001,0.22264648796017147,0.7741666666666667,0.6084043979644775
25,0.9,0.982774874707259,0.0001,0.22236059169308145,0.775,0.571391761302948
26,1.5,0.3556529762521159,0.0001,0.21750773884917504,0.7751666666666667,0.6439765691757202
27,0.7,2.0089907147111545,0.0001,0.21688301869775395,0.7745,0.6398187279701233
28,0.9,0.982774874707259,0.0001,0.22322391973270125,0.7748333333333334,0.5910465717315674
29,1.5,0.3556529762521159,0.0001,0.22249252666470465,0.7746666666666666,0.5790098309516907
