[
  {
    "name": "batch_size",
    "type": "range",
    "value_type": "int",
    "bounds": [10, 512]
},
{
    "name": "noise_multiplier",
    "type": "range",
    "value_type": "float",
    "bounds": [0.4, 5],
    "digits": 1,
    "log_scale": true
},
{
    "name": "max_grad_norm",
    "type": "range",
    "value_type": "float",
    "bounds": [1, 15],
    "digits": 0
},
{
    "name": "num_epochs",
    "type": "fixed",
    "value_type": "int",
    "value": 15
},
{
    "name": "delta",
    "type": "fixed",
    "value_type": "float",
    "value": 1e-4
}
]
