,noise_multiplier,epsilon,delta,ece,accuracy,auc
0,0.7,2.929774821392804,0.0001,0.31448681179985954,0.47646604938271603,0.5590503811836243
1,0.9,1.468710958203254,0.0001,0.22096766006017543,0.5142746913580247,0.6281372308731079
2,1.5,0.6125472812566883,0.0001,0.3923484900345405,0.4066358024691358,0.5137228965759277
3,0.7,2.929774821392804,0.0001,0.1572765050065002,0.6435185185185185,0.6549469232559204
4,0.9,1.468710958203254,0.0001,0.3245494824914653,0.4660493827160494,0.5025574564933777
5,1.5,0.6125472812566883,0.0001,0.3479306489965062,0.4513888888888889,0.6147111654281616
6,0.7,2.929774821392804,0.0001,0.31918614438194554,0.43016975308641975,0.6840060949325562
7,0.9,1.468710958203254,0.0001,0.3056087229676821,0.4679783950617284,0.6226188540458679
8,1.5,0.6125472812566883,0.0001,0.362021518641232,0.4305555555555556,0.6103113889694214
9,0.7,2.929774821392804,0.0001,0.28813927787367577,0.5262345679012346,0.5396231412887573
10,0.9,1.468710958203254,0.0001,0.2146408511210739,0.564429012345679,0.6379801034927368
11,1.5,0.6125472812566883,0.0001,0.3683374917801515,0.39621913580246915,0.5078722238540649
12,0.7,2.929774821392804,0.0001,0.2884911149855197,0.47453703703703703,0.6815885305404663
13,0.9,1.468710958203254,0.0001,0.3289661019764564,0.42669753086419754,0.6033132076263428
14,1.5,0.6125472812566883,0.0001,0.32456984459480015,0.45023148148148145,0.5074881315231323
15,0.7,2.929774821392804,0.0001,0.2353366516346549,0.5486111111111112,0.6448651552200317
16,0.9,1.468710958203254,0.0001,0.30370356641525836,0.48919753086419754,0.5225092768669128
17,1.5,0.6125472812566883,0.0001,0.306735521055942,0.4548611111111111,0.5448668599128723
18,0.7,2.929774821392804,0.0001,0.23210369874895723,0.5466820987654321,0.7019245028495789
19,0.9,1.468710958203254,0.0001,0.2969257164930488,0.4699074074074074,0.5033510327339172
20,1.5,0.6125472812566883,0.0001,0.45612139635385923,0.30941358024691357,0.4726148247718811
21,0.7,2.929774821392804,0.0001,0.31117980851343385,0.4783950617283951,0.5656100511550903
22,0.9,1.468710958203254,0.0001,0.29552908648771276,0.49382716049382713,0.5681754350662231
23,1.5,0.6125472812566883,0.0001,0.2594849702407732,0.5246913580246914,0.6386681795120239
24,0.7,2.929774821392804,0.0001,0.30709166381002206,0.4996141975308642,0.6483261585235596
25,0.9,1.468710958203254,0.0001,0.26482604831503126,0.48302469135802467,0.6898667216300964
26,1.5,0.6125472812566883,0.0001,0.3740443243633634,0.41705246913580246,0.5055626034736633
27,0.7,2.929774821392804,0.0001,0.25726296113413055,0.5466820987654321,0.6742686033248901
28,0.9,1.468710958203254,0.0001,0.25892301721291416,0.49344135802469136,0.5618588924407959
29,1.5,0.6125472812566883,0.0001,0.26125181107609363,0.5061728395061729,0.547662615776062
