,noise_multiplier,epsilon,delta,ece,accuracy,auc
0,0.45,25.61067015036361,0.0001,0.06804560927881131,0.9319444444444445,0.6693446040153503
1,0.56,11.608964916738566,0.0001,0.06804341930482116,0.9319444444444445,0.7170162200927734
2,0.7,5.572218703844409,0.0001,0.06804524088899289,0.9319444444444445,0.6944732666015625
3,0.9,2.852957824235283,0.0001,0.06804423986209762,0.9319444444444445,0.7118375897407532
4,1.5,1.1715655043991244,0.0001,0.0680478319525718,0.9319444444444445,0.6375515460968018
5,3.5,0.4040245250268461,0.0001,0.06804606823457615,0.9319444444444445,0.6477217078208923
6,5.3,0.2508798944286539,0.0001,0.06804448382722006,0.9319444444444445,0.5099003314971924
7,5.7,0.2309850296495868,0.0001,0.06804485718409214,0.9319444444444445,0.5716308951377869
8,0.45,25.61067015036361,0.0001,0.06804514138234985,0.9319444444444445,0.7007860541343689
9,0.56,11.608964916738566,0.0001,0.06804707182778247,0.9319444444444445,0.6726141571998596
10,0.7,5.572218703844409,0.0001,0.06804222067197163,0.9319444444444445,0.6633966565132141
11,0.9,2.852957824235283,0.0001,0.06804400947358868,0.9319444444444445,0.68412846326828
12,1.5,1.1715655043991244,0.0001,0.06804502871301432,0.9319444444444445,0.6787939667701721
13,3.5,0.4040245250268461,0.0001,0.0680479201177756,0.9319444444444445,0.6522839665412903
14,5.3,0.2508798944286539,0.0001,0.06804528807600341,0.9319444444444445,0.5713769197463989
15,5.7,0.2309850296495868,0.0001,0.06804520653353796,0.9319444444444445,0.6327962279319763
16,0.45,25.61067015036361,0.0001,0.06804375764396453,0.9319444444444445,0.6961217522621155
17,0.56,11.608964916738566,0.0001,0.06804490337769187,0.9319444444444445,0.6922575831413269
18,0.7,5.572218703844409,0.0001,0.06804549495379131,0.9319444444444445,0.6612913608551025
19,0.9,2.852957824235283,0.0001,0.06804531721605189,0.9319444444444445,0.6630615592002869
20,1.5,1.1715655043991244,0.0001,0.06804681354098852,0.9319444444444445,0.6032981872558594
21,3.5,0.4040245250268461,0.0001,0.06804860664738543,0.9319444444444445,0.6466311812400818
22,5.3,0.2508798944286539,0.0001,0.06804490710298217,0.9319444444444445,0.6358076930046082
23,5.7,0.2309850296495868,0.0001,0.06803573378258276,0.9319444444444445,0.5902609825134277
24,0.45,25.61067015036361,0.0001,0.06804572583900559,0.9319444444444445,0.6998012065887451
25,0.56,11.608964916738566,0.0001,0.06804637776480782,0.9319444444444445,0.7091001868247986
26,0.7,5.572218703844409,0.0001,0.06804629522893157,0.9319444444444445,0.7010290622711182
27,0.9,2.852957824235283,0.0001,0.06804445832967754,0.9319444444444445,0.6522563695907593
28,1.5,1.1715655043991244,0.0001,0.06804381244712399,0.9319444444444445,0.6258534789085388
29,3.5,0.4040245250268461,0.0001,0.06804425525996416,0.9319444444444445,0.5470632910728455
30,5.3,0.2508798944286539,0.0001,0.06804590713646674,0.9319444444444445,0.5825173258781433
31,5.7,0.2309850296495868,0.0001,0.06804088734918168,0.9319444444444445,0.6832301020622253
32,0.45,25.61067015036361,0.0001,0.06804565307166843,0.9319444444444445,0.6834306120872498
33,0.56,11.608964916738566,0.0001,0.06804465196198883,0.9319444444444445,0.6784486770629883
34,0.7,5.572218703844409,0.0001,0.06804759874939914,0.9319444444444445,0.683828592300415
35,0.9,2.852957824235283,0.0001,0.06804536721772614,0.9319444444444445,0.697982132434845
36,1.5,1.1715655043991244,0.0001,0.06804814106888235,0.9319444444444445,0.609553337097168
37,3.5,0.4040245250268461,0.0001,0.06804943862888546,0.9319444444444445,0.46130552887916565
38,5.3,0.2508798944286539,0.0001,0.06804289321104684,0.9319444444444445,0.5912635922431946
39,5.7,0.2309850296495868,0.0001,0.0680433454612891,0.9319444444444445,0.518049418926239
40,0.45,25.61067015036361,0.0001,0.06804137453436854,0.9319444444444445,0.6780452728271484
41,0.56,11.608964916738566,0.0001,0.0680476016468472,0.9319444444444445,0.7144754528999329
42,0.7,5.572218703844409,0.0001,0.06804393298096123,0.9319444444444445,0.6994375586509705
43,0.9,2.852957824235283,0.0001,0.06804624969760575,0.9319444444444445,0.700785219669342
44,1.5,1.1715655043991244,0.0001,0.06804777690105968,0.9319444444444445,0.6452705264091492
45,3.5,0.4040245250268461,0.0001,0.0680483660764164,0.9319444444444445,0.6187800765037537
46,5.3,0.2508798944286539,0.0001,0.06803279908166993,0.9319444444444445,0.5776593089103699
47,5.7,0.2309850296495868,0.0001,0.06804088494843907,0.9319444444444445,0.5750899910926819
48,0.45,25.61067015036361,0.0001,0.06804447977079287,0.9319444444444445,0.7049824595451355
49,0.56,11.608964916738566,0.0001,0.06804379762874713,0.9319444444444445,0.6481165289878845
50,0.7,5.572218703844409,0.0001,0.06804569214582445,0.9319444444444445,0.6781094074249268
51,0.9,2.852957824235283,0.0001,0.06804732349183817,0.9319444444444445,0.6653929352760315
52,1.5,1.1715655043991244,0.0001,0.06804607195986645,0.9319444444444445,0.6170904636383057
53,3.5,0.4040245250268461,0.0001,0.06805041813188129,0.9319444444444445,0.6285590529441833
54,5.3,0.2508798944286539,0.0001,0.06804314495788677,0.9319444444444445,0.5993505120277405
55,5.7,0.2309850296495868,0.0001,0.06802652966645029,0.9319444444444445,0.5706660747528076
56,0.45,25.61067015036361,0.0001,0.06804452778564563,0.9319444444444445,0.7348917126655579
57,0.56,11.608964916738566,0.0001,0.06804408960872221,0.9319444444444445,0.6584681272506714
58,0.7,5.572218703844409,0.0001,0.06804462563660407,0.9319444444444445,0.700223445892334
59,0.9,2.852957824235283,0.0001,0.06804654664463461,0.9319444444444445,0.6967750191688538
60,1.5,1.1715655043991244,0.0001,0.06804400997029414,0.9319444444444445,0.6684578061103821
61,3.5,0.4040245250268461,0.0001,0.06804506588313308,0.9319444444444445,0.6292850375175476
62,5.3,0.2508798944286539,0.0001,0.06803843991623981,0.9319444444444445,0.5949299335479736
63,5.7,0.2309850296495868,0.0001,0.06804105829861429,0.9319444444444445,0.631944477558136
64,0.45,25.61067015036361,0.0001,0.06804413273930543,0.9319444444444445,0.6793950200080872
65,0.56,11.608964916738566,0.0001,0.06804506298568513,0.9319444444444445,0.6936671137809753
66,0.7,5.572218703844409,0.0001,0.06804624920090041,0.9319444444444445,0.7171939015388489
67,0.9,2.852957824235283,0.0001,0.06804639870921769,0.9319444444444445,0.6504830718040466
68,1.5,1.1715655043991244,0.0001,0.0680488120350573,0.9319444444444445,0.6697114109992981
69,3.5,0.4040245250268461,0.0001,0.06804603106445739,0.9319444444444445,0.6118817329406738
70,5.3,0.2508798944286539,0.0001,0.06804165550404118,0.9319444444444445,0.6007931232452393
71,5.7,0.2309850296495868,0.0001,0.0680456997619735,0.9319444444444445,0.6319666504859924
72,0.45,25.61067015036361,0.0001,0.06804597924153011,0.9319444444444445,0.710178554058075
73,0.56,11.608964916738566,0.0001,0.06804482663671174,0.9319444444444445,0.7114266753196716
74,0.7,5.572218703844409,0.0001,0.06804392751720212,0.9319444444444445,0.6604554653167725
75,0.9,2.852957824235283,0.0001,0.06804654126365972,0.9319444444444445,0.6697079539299011
76,1.5,1.1715655043991244,0.0001,0.06804738822910517,0.9319444444444445,0.6682565212249756
77,3.5,0.4040245250268461,0.0001,0.06804754758874576,0.9319444444444445,0.6344333291053772
78,5.3,0.2508798944286539,0.0001,0.0680466914342509,0.9319444444444445,0.620445191860199
79,5.7,0.2309850296495868,0.0001,0.06804093511568177,0.9319444444444445,0.6409056782722473
