\beamer@sectionintoc {1}{Objectives}{2}{0}{1}
\beamer@sectionintoc {2}{Context}{3}{0}{2}
\beamer@sectionintoc {3}{Motivating example}{8}{0}{3}
\beamer@subsectionintoc {3}{1}{problem statement}{9}{0}{3}
\beamer@subsectionintoc {3}{2}{binary mechanism}{11}{0}{3}
\beamer@subsectionintoc {3}{3}{results}{12}{0}{3}
\beamer@sectionintoc {4}{Discussion}{13}{0}{4}
