,noise_multiplier,epsilon,delta,ece,accuracy,auc
0,0.7,14.600540056108338,0.0001,0.18791031186119656,0.745,0.7332178354263306
1,0.9,8.031471607705274,0.0001,0.17581951686181133,0.75,0.7459248304367065
2,1.5,3.208715586067125,0.0001,0.20190344572067265,0.71,0.7194840312004089
3,0.7,14.600540056108338,0.0001,0.16508550327271224,0.765,0.7388011813163757
4,0.9,8.031471607705274,0.0001,0.19185154988896108,0.73,0.748812735080719
5,1.5,3.208715586067125,0.0001,0.18006230585277083,0.73,0.7226928472518921
6,0.7,14.600540056108338,0.0001,0.1835210576106328,0.75,0.7315492033958435
7,0.9,8.031471607705274,0.0001,0.17827800028957433,0.74,0.715569257736206
8,1.5,3.208715586067125,0.0001,0.2176250322163105,0.71,0.7332819700241089
9,0.7,14.600540056108338,0.0001,0.19523073405027397,0.735,0.733731210231781
10,0.9,8.031471607705274,0.0001,0.16281175686046484,0.74,0.7233988046646118
11,1.5,3.208715586067125,0.0001,0.20957504048943515,0.73,0.7241047620773315
12,0.7,14.600540056108338,0.0001,0.1746860686596483,0.75,0.737389326095581
13,0.9,8.031471607705274,0.0001,0.16343127668835222,0.74,0.7280836701393127
14,1.5,3.208715586067125,0.0001,0.20020299986004836,0.72,0.7237838506698608
15,0.7,14.600540056108338,0.0001,0.19498659278266134,0.76,0.7362983226776123
16,0.9,8.031471607705274,0.0001,0.18255104906857023,0.755,0.7243614196777344
17,1.5,3.208715586067125,0.0001,0.21794189162552363,0.705,0.7279553413391113
18,0.7,14.600540056108338,0.0001,0.18263350124470892,0.745,0.7375818490982056
19,0.9,8.031471607705274,0.0001,0.16734602719545366,0.745,0.7284687757492065
20,1.5,3.208715586067125,0.0001,0.1881722949445248,0.725,0.7322551608085632
21,0.7,14.600540056108338,0.0001,0.18718130440451203,0.75,0.7447695732116699
22,0.9,8.031471607705274,0.0001,0.16921404222026468,0.725,0.7280194759368896
23,1.5,3.208715586067125,0.0001,0.22398793533444397,0.725,0.7228212356567383
24,0.7,14.600540056108338,0.0001,0.1838390056136996,0.745,0.7259658575057983
25,0.9,8.031471607705274,0.0001,0.1623771999869496,0.735,0.728276252746582
26,1.5,3.208715586067125,0.0001,0.20780525609850886,0.72,0.7277628183364868
27,0.7,14.600540056108338,0.0001,0.18958729667123408,0.74,0.7298806309700012
28,0.9,8.031471607705274,0.0001,0.17224616107996554,0.74,0.7415608167648315
29,1.5,3.208715586067125,0.0001,0.16431717120110984,0.75,0.7422667145729065
