,noise_multiplier,epsilon,delta,ece,accuracy,auc
0,0.7,3.924063848026924,1e-05,0.09882210492491725,0.8213,0.964179515838623
1,0.9,1.9544620109919821,1e-05,0.10326934312880034,0.8053,0.958337128162384
2,1.5,0.8002025931614115,1e-05,0.13548690934628244,0.7621,0.9508488774299622
3,0.7,3.924063848026924,1e-05,0.0899675243929029,0.8246,0.9594427943229675
4,0.9,1.9544620109919821,1e-05,0.10125720476210115,0.8139,0.9631952047348022
5,1.5,0.8002025931614115,1e-05,0.1053030915528536,0.7805,0.9540737867355347
6,0.7,3.924063848026924,1e-05,0.08845669622719288,0.8257,0.9668118357658386
7,0.9,1.9544620109919821,1e-05,0.11234224203526975,0.8082,0.9619560241699219
8,1.5,0.8002025931614115,1e-05,0.09769715159237387,0.7848,0.9585458040237427
