,noise_multiplier,epsilon,delta,ece,accuracy,auc
0,0.45,18.450808686836503,0.0001,0.3441441182139111,0.33603395061728397,0.8897654414176941
1,0.56,8.950890122693849,0.0001,0.10412472257689565,0.4791666666666667,0.7464872002601624
2,0.7,4.438417138773711,0.0001,0.03387701515982178,0.33603395061728397,0.7166610956192017
3,0.9,2.202470809369153,0.0001,0.1593955503891647,0.5204475308641975,0.7713730931282043
4,1.5,0.8369338923687768,0.0001,0.037304854204441296,0.33603395061728397,0.6475650072097778
5,3.5,0.2840339085300177,0.0001,0.016012914076355467,0.37114197530864196,0.5848895907402039
6,5.3,0.17565136529344522,0.0001,0.024101635452681847,0.33449074074074076,0.4793817400932312
7,5.7,0.16161846841880861,0.0001,0.03832216413668643,0.375,0.5591338872909546
8,0.45,18.450808686836503,0.0001,0.1654838960571789,0.5366512345679012,0.7187193036079407
9,0.56,8.950890122693849,0.0001,0.15427863156353988,0.5262345679012346,0.6818143129348755
10,0.7,4.438417138773711,0.0001,0.1224353915816288,0.48919753086419754,0.7985891103744507
11,0.9,2.202470809369153,0.0001,0.05069079171912172,0.4050925925925926,0.6392568349838257
12,1.5,0.8369338923687768,0.0001,0.00138759008252326,0.3638117283950617,0.7649852633476257
13,3.5,0.2840339085300177,0.0001,0.0361303410458344,0.33603395061728397,0.5313823223114014
14,5.3,0.17565136529344522,0.0001,0.011467016141079811,0.33603395061728397,0.5649474859237671
15,5.7,0.16161846841880861,0.0001,0.034188596313290354,0.33603395061728397,0.4822816848754883
16,0.45,18.450808686836503,0.0001,0.3096123941840581,0.33603395061728397,0.7562206387519836
17,0.56,8.950890122693849,0.0001,0.021410993449849813,0.3368055555555556,0.7334173917770386
18,0.7,4.438417138773711,0.0001,0.06908169550890172,0.33603395061728397,0.8259547352790833
19,0.9,2.202470809369153,0.0001,0.017167303837651804,0.38271604938271603,0.684853732585907
20,1.5,0.8369338923687768,0.0001,0.045881151486142135,0.33603395061728397,0.7870500683784485
21,3.5,0.2840339085300177,0.0001,0.010479967742238527,0.33757716049382713,0.6935286521911621
22,5.3,0.17565136529344522,0.0001,0.029176133937765747,0.33603395061728397,0.6415586471557617
23,5.7,0.16161846841880861,0.0001,0.015640557375679043,0.33217592592592593,0.5619867444038391
24,0.45,18.450808686836503,0.0001,0.1985948821644724,0.5559413580246914,0.8792832493782043
25,0.56,8.950890122693849,0.0001,0.14873179419679036,0.33603395061728397,0.7347105145454407
26,0.7,4.438417138773711,0.0001,0.12009117731617554,0.33603395061728397,0.7085434198379517
27,0.9,2.202470809369153,0.0001,0.03223627591850581,0.34953703703703703,0.6754230260848999
28,1.5,0.8369338923687768,0.0001,0.02882654741866353,0.38348765432098764,0.7810215950012207
29,3.5,0.2840339085300177,0.0001,0.013806848614304146,0.33641975308641975,0.5562975406646729
30,5.3,0.17565136529344522,0.0001,0.001388403207615574,0.33024691358024694,0.4591373801231384
31,5.7,0.16161846841880861,0.0001,0.01786907541531102,0.33449074074074076,0.5247737169265747
32,0.45,18.450808686836503,0.0001,0.15564815153908218,0.5308641975308642,0.8316535949707031
33,0.56,8.950890122693849,0.0001,0.03452517702761626,0.33641975308641975,0.8354440927505493
34,0.7,4.438417138773711,0.0001,0.08724174546192826,0.45871913580246915,0.8460153341293335
35,0.9,2.202470809369153,0.0001,0.0036244417690201036,0.36072530864197533,0.5812970399856567
36,1.5,0.8369338923687768,0.0001,0.04047759752260682,0.33603395061728397,0.5478168725967407
37,3.5,0.2840339085300177,0.0001,0.027630281439166016,0.33449074074074076,0.721416711807251
38,5.3,0.17565136529344522,0.0001,0.029129973589730147,0.36419753086419754,0.5332962870597839
39,5.7,0.16161846841880861,0.0001,0.05125896967257613,0.33603395061728397,0.5687333941459656
40,0.45,18.450808686836503,0.0001,0.046730792540826904,0.33603395061728397,0.7967663407325745
41,0.56,8.950890122693849,0.0001,0.12712294125446566,0.48842592592592593,0.6864614486694336
42,0.7,4.438417138773711,0.0001,0.002221701149311306,0.35725308641975306,0.8124321699142456
43,0.9,2.202470809369153,0.0001,0.08043302541575686,0.44212962962962965,0.6919241547584534
44,1.5,0.8369338923687768,0.0001,0.1454626150015328,0.33603395061728397,0.701823353767395
45,3.5,0.2840339085300177,0.0001,0.08183261779723343,0.33603395061728397,0.5248292684555054
46,5.3,0.17565136529344522,0.0001,0.015885157556629448,0.35030864197530864,0.5032119750976562
47,5.7,0.16161846841880861,0.0001,0.02068789708025659,0.33603395061728397,0.38787221908569336
48,0.45,18.450808686836503,0.0001,0.022068878118362667,0.3425925925925926,0.6229831576347351
49,0.56,8.950890122693849,0.0001,0.01142823931841569,0.3479938271604938,0.7429009675979614
50,0.7,4.438417138773711,0.0001,0.03124015136725372,0.3422067901234568,0.6907439827919006
51,0.9,2.202470809369153,0.0001,0.13665382760680383,0.5050154320987654,0.7286564111709595
52,1.5,0.8369338923687768,0.0001,0.05765526527883831,0.33603395061728397,0.7880711555480957
53,3.5,0.2840339085300177,0.0001,0.04391418086985743,0.33449074074074076,0.4295247197151184
54,5.3,0.17565136529344522,0.0001,0.034666523739787514,0.33449074074074076,0.5901914834976196
55,5.7,0.16161846841880861,0.0001,0.04366384839846027,0.33603395061728397,0.6437597870826721
56,0.45,18.450808686836503,0.0001,0.2960043920112061,0.33603395061728397,0.708768367767334
57,0.56,8.950890122693849,0.0001,0.0806081251781664,0.4506172839506173,0.6820030808448792
58,0.7,4.438417138773711,0.0001,0.01381936692345287,0.3425925925925926,0.7108395099639893
59,0.9,2.202470809369153,0.0001,0.08073439562900198,0.4375,0.7014381289482117
60,1.5,0.8369338923687768,0.0001,0.12496411995847284,0.47337962962962965,0.5649022459983826
61,3.5,0.2840339085300177,0.0001,0.03084661161963953,0.33449074074074076,0.4036130905151367
62,5.3,0.17565136529344522,0.0001,0.029300173848039568,0.33603395061728397,0.34977781772613525
63,5.7,0.16161846841880861,0.0001,0.028065586738564352,0.3584104938271605,0.6455222368240356
64,0.45,18.450808686836503,0.0001,0.053323985387881634,0.4340277777777778,0.672098696231842
65,0.56,8.950890122693849,0.0001,0.0317086861296384,0.33603395061728397,0.8419433832168579
66,0.7,4.438417138773711,0.0001,0.012042136575428741,0.3433641975308642,0.7157626152038574
67,0.9,2.202470809369153,0.0001,0.019349835859036768,0.38117283950617287,0.7921168804168701
68,1.5,0.8369338923687768,0.0001,0.08037119650822366,0.4363425925925926,0.7341337203979492
69,3.5,0.2840339085300177,0.0001,0.007947613209210058,0.36574074074074076,0.5784672498703003
70,5.3,0.17565136529344522,0.0001,0.07653293722987542,0.33603395061728397,0.5583975315093994
71,5.7,0.16161846841880861,0.0001,0.006863136120416502,0.33603395061728397,0.593697190284729
72,0.45,18.450808686836503,0.0001,0.02359150252362463,0.33641975308641975,0.8379687070846558
73,0.56,8.950890122693849,0.0001,0.12991925437049368,0.4826388888888889,0.7192832231521606
74,0.7,4.438417138773711,0.0001,0.06425403497745225,0.33603395061728397,0.7504032850265503
75,0.9,2.202470809369153,0.0001,0.16114064494584812,0.5381944444444444,0.7075273394584656
76,1.5,0.8369338923687768,0.0001,0.004078340889127174,0.35378086419753085,0.48581403493881226
77,3.5,0.2840339085300177,0.0001,0.016153575910002327,0.33603395061728397,0.6006044149398804
78,5.3,0.17565136529344522,0.0001,0.030319112330031206,0.33449074074074076,0.5441058278083801
79,5.7,0.16161846841880861,0.0001,0.01574306901728295,0.33449074074074076,0.45080289244651794
