,noise_multiplier,epsilon,delta,ece,accuracy,auc
0,0.45,26.000707002287186,0.0001,0.052528877776301545,0.7285067873303167,0.8110002279281616
1,0.56,13.296199701956443,0.0001,0.07299569725981868,0.7285067873303167,0.8106597661972046
2,0.7,6.906767054593188,0.0001,0.07554191211027797,0.7420814479638009,0.811253547668457
3,0.9,3.599335476781261,0.0001,0.0630519020695627,0.7183257918552036,0.7984310984611511
4,1.5,1.3960710585994869,0.0001,0.13968608359810455,0.7081447963800905,0.8088733553886414
5,3.5,0.4695987464735467,0.0001,0.1849940679124578,0.7047511312217195,0.7919865846633911
6,5.3,0.29032012518502653,0.0001,0.2084547095843569,0.7205882352941176,0.7928133010864258
7,5.7,0.2671493163425957,0.0001,0.14087276598986453,0.6515837104072398,0.7531275749206543
8,0.45,26.000707002287186,0.0001,0.07716535323623955,0.7296380090497737,0.807957112789154
9,0.56,13.296199701956443,0.0001,0.07463607583532103,0.7330316742081447,0.817022442817688
10,0.7,6.906767054593188,0.0001,0.06114478028333026,0.7330316742081447,0.8164849281311035
11,0.9,3.599335476781261,0.0001,0.13385232671151331,0.6809954751131222,0.8097410202026367
12,1.5,1.3960710585994869,0.0001,0.13099825533941323,0.7251131221719457,0.8025823831558228
13,3.5,0.4695987464735467,0.0001,0.030972314669805434,0.5350678733031674,0.7630579471588135
14,5.3,0.29032012518502653,0.0001,0.12425311867198255,0.6425339366515838,0.7639358043670654
15,5.7,0.2671493163425957,0.0001,0.1764677520925643,0.6877828054298643,0.7522292137145996
16,0.45,26.000707002287186,0.0001,0.056369097696878534,0.7432126696832579,0.8181716203689575
17,0.56,13.296199701956443,0.0001,0.041505303678452565,0.7307692307692307,0.8065007925033569
18,0.7,6.906767054593188,0.0001,0.09140254586631626,0.7194570135746606,0.813889741897583
19,0.9,3.599335476781261,0.0001,0.10832583160893952,0.7058823529411765,0.7990914583206177
20,1.5,1.3960710585994869,0.0001,0.13684470004220892,0.6764705882352942,0.8023366928100586
21,3.5,0.4695987464735467,0.0001,0.04347575139001486,0.5384615384615384,0.7752840518951416
22,5.3,0.29032012518502653,0.0001,0.08987244451207814,0.502262443438914,0.7900286912918091
23,5.7,0.2671493163425957,0.0001,0.03217408779115159,0.5531674208144797,0.7557970285415649
24,0.45,26.000707002287186,0.0001,0.13372845199734512,0.7115384615384616,0.810966968536377
25,0.56,13.296199701956443,0.0001,0.03621936535749299,0.7307692307692307,0.8085867166519165
26,0.7,6.906767054593188,0.0001,0.05321605850803368,0.7330316742081447,0.8136696219444275
27,0.9,3.599335476781261,0.0001,0.07481763704060429,0.7341628959276018,0.8091983795166016
28,1.5,1.3960710585994869,0.0001,0.15104592827515367,0.6889140271493213,0.8055026531219482
29,3.5,0.4695987464735467,0.0001,0.20743897358351704,0.7217194570135747,0.7911931276321411
30,5.3,0.29032012518502653,0.0001,0.10285914662332007,0.6131221719457014,0.7530789375305176
31,5.7,0.2671493163425957,0.0001,0.18675695969912795,0.7002262443438914,0.7745085954666138
32,0.45,26.000707002287186,0.0001,0.07759682860697421,0.7273755656108597,0.8087530732154846
33,0.56,13.296199701956443,0.0001,0.040737960932194776,0.7341628959276018,0.8072634935379028
34,0.7,6.906767054593188,0.0001,0.066066448336543,0.7341628959276018,0.8127738237380981
35,0.9,3.599335476781261,0.0001,0.06392305231404519,0.7262443438914027,0.8023802042007446
36,1.5,1.3960710585994869,0.0001,0.1548814401536236,0.7104072398190046,0.7992475032806396
37,3.5,0.4695987464735467,0.0001,0.07528996154059116,0.5610859728506787,0.804745078086853
38,5.3,0.29032012518502653,0.0001,0.11452715297764782,0.6323529411764706,0.7767813205718994
39,5.7,0.2671493163425957,0.0001,0.20882603495773683,0.7228506787330317,0.7742846608161926
40,0.45,26.000707002287186,0.0001,0.046252347855529494,0.7398190045248869,0.8093878030776978
41,0.56,13.296199701956443,0.0001,0.04008078182798841,0.7341628959276018,0.8134827613830566
42,0.7,6.906767054593188,0.0001,0.08798982917301659,0.7319004524886877,0.8110897541046143
43,0.9,3.599335476781261,0.0001,0.09670213706016002,0.7149321266968326,0.8065289258956909
44,1.5,1.3960710585994869,0.0001,0.13394087770473362,0.7205882352941176,0.8132089376449585
45,3.5,0.4695987464735467,0.0001,0.16436294830357867,0.6877828054298643,0.7885262966156006
46,5.3,0.29032012518502653,0.0001,0.03017202528758279,0.5180995475113123,0.7258138656616211
47,5.7,0.2671493163425957,0.0001,0.0708262778447764,0.584841628959276,0.7403856515884399
48,0.45,26.000707002287186,0.0001,0.04477142604126921,0.7352941176470589,0.8128148317337036
49,0.56,13.296199701956443,0.0001,0.040070573664459985,0.7409502262443439,0.8135288953781128
50,0.7,6.906767054593188,0.0001,0.052648383289643,0.7398190045248869,0.8158092498779297
51,0.9,3.599335476781261,0.0001,0.08003159199432547,0.7262443438914027,0.8093750476837158
52,1.5,1.3960710585994869,0.0001,0.14449509619250556,0.6515837104072398,0.8141661286354065
53,3.5,0.4695987464735467,0.0001,0.11759849539979007,0.6572398190045249,0.7896498441696167
54,5.3,0.29032012518502653,0.0001,0.03372047477448146,0.5610859728506787,0.7702420949935913
55,5.7,0.2671493163425957,0.0001,0.047058413302466906,0.502262443438914,0.742181122303009
56,0.45,26.000707002287186,0.0001,0.05051354176841036,0.7319004524886877,0.8090141415596008
57,0.56,13.296199701956443,0.0001,0.0727606118884258,0.7398190045248869,0.8094134330749512
58,0.7,6.906767054593188,0.0001,0.065763204354304,0.7307692307692307,0.8037776350975037
59,0.9,3.599335476781261,0.0001,0.07025014546729322,0.7341628959276018,0.8144989013671875
60,1.5,1.3960710585994869,0.0001,0.13462166611223195,0.7024886877828054,0.8054949641227722
61,3.5,0.4695987464735467,0.0001,0.03849600006012898,0.5712669683257918,0.7962582111358643
62,5.3,0.29032012518502653,0.0001,0.0213091282418411,0.5169683257918553,0.726036548614502
63,5.7,0.2671493163425957,0.0001,0.030848468927776124,0.5373303167420814,0.8065110445022583
64,0.45,26.000707002287186,0.0001,0.059955849139466534,0.7205882352941176,0.8038774728775024
65,0.56,13.296199701956443,0.0001,0.048711479500323784,0.7420814479638009,0.8126229047775269
66,0.7,6.906767054593188,0.0001,0.0771850038707526,0.7285067873303167,0.8101427555084229
67,0.9,3.599335476781261,0.0001,0.10671888939968871,0.7126696832579186,0.8123822212219238
68,1.5,1.3960710585994869,0.0001,0.12882450809575857,0.7239819004524887,0.802533745765686
69,3.5,0.4695987464735467,0.0001,0.09974860841602225,0.6233031674208145,0.7920019626617432
70,5.3,0.29032012518502653,0.0001,0.04360414832425877,0.5667420814479638,0.7799652218818665
71,5.7,0.2671493163425957,0.0001,0.12159363375934544,0.6334841628959276,0.7496979832649231
72,0.45,26.000707002287186,0.0001,0.06347408470364785,0.7273755656108597,0.8111358880996704
73,0.56,13.296199701956443,0.0001,0.03515927113247066,0.7386877828054299,0.8186348676681519
74,0.7,6.906767054593188,0.0001,0.11653186674588,0.7183257918552036,0.8139562606811523
75,0.9,3.599335476781261,0.0001,0.1059869608138077,0.7319004524886877,0.8156710863113403
76,1.5,1.3960710585994869,0.0001,0.1306171793810922,0.7273755656108597,0.8035626411437988
77,3.5,0.4695987464735467,0.0001,0.17867854942158878,0.7024886877828054,0.7763231992721558
78,5.3,0.29032012518502653,0.0001,0.06458174127124555,0.5859728506787331,0.7632473707199097
79,5.7,0.2671493163425957,0.0001,0.035850148799732216,0.5124434389140271,0.773516833782196
