,noise_multiplier,epsilon,delta,ece,accuracy,auc
0,0.45,34.8749015624323,1e-05,0.16715538586527107,0.5173,0.868995189666748
1,0.56,15.425292927679378,1e-05,0.1646518753260374,0.488,0.8642398118972778
2,0.7,7.353433092528645,1e-05,0.15193249578177928,0.484,0.8601049184799194
3,0.9,3.833985081271189,1e-05,0.12688315144181253,0.4584,0.8458558320999146
4,1.5,1.6206308210819351,1e-05,0.03594753836691381,0.3762,0.8050090670585632
5,3.5,0.5739584205726583,1e-05,0.024364800474047668,0.2976,0.7504510283470154
6,5.3,0.3611518510595663,1e-05,0.061261026053875685,0.2697,0.7196306586265564
7,5.7,0.333327861401164,1e-05,0.06585585586801171,0.2712,0.7173494696617126
8,0.45,34.8749015624323,1e-05,0.1520427187934518,0.5169,0.8683716654777527
9,0.56,15.425292927679378,1e-05,0.1468227073535323,0.4978,0.8605310320854187
10,0.7,7.353433092528645,1e-05,0.1401733546078205,0.457,0.8477886915206909
11,0.9,3.833985081271189,1e-05,0.09524825358092784,0.4425,0.8416919708251953
12,1.5,1.6206308210819351,1e-05,0.026018150222301497,0.3755,0.7926356196403503
13,3.5,0.5739584205726583,1e-05,0.01707641447633504,0.3056,0.7531222105026245
14,5.3,0.3611518510595663,1e-05,0.06425442235469818,0.2667,0.718708872795105
15,5.7,0.333327861401164,1e-05,0.05533347171917559,0.2614,0.713675320148468
16,0.45,34.8749015624323,1e-05,0.17860276149660345,0.5289,0.8757689595222473
17,0.56,15.425292927679378,1e-05,0.1560718496009708,0.4971,0.8661571741104126
18,0.7,7.353433092528645,1e-05,0.14213942880481484,0.4784,0.8580945730209351
19,0.9,3.833985081271189,1e-05,0.13682695731669664,0.454,0.8441283106803894
20,1.5,1.6206308210819351,1e-05,0.04752545831203462,0.3862,0.804975152015686
21,3.5,0.5739584205726583,1e-05,0.03296004230380059,0.2936,0.7467892169952393
22,5.3,0.3611518510595663,1e-05,0.028074171403795478,0.2454,0.7063586115837097
23,5.7,0.333327861401164,1e-05,0.06798804651498794,0.2612,0.7041946649551392
24,0.45,34.8749015624323,1e-05,0.16396867695897818,0.5451,0.8815288543701172
25,0.56,15.425292927679378,1e-05,0.15689583106786012,0.5021,0.8642276525497437
26,0.7,7.353433092528645,1e-05,0.13179874396920205,0.4623,0.8496012687683105
27,0.9,3.833985081271189,1e-05,0.09600603514611722,0.4318,0.8344410061836243
28,1.5,1.6206308210819351,1e-05,0.03306751430481673,0.3846,0.8063488006591797
29,3.5,0.5739584205726583,1e-05,0.04060194662213325,0.3059,0.7445816397666931
30,5.3,0.3611518510595663,1e-05,0.050822614671289915,0.2624,0.7116000652313232
31,5.7,0.333327861401164,1e-05,0.0468840204156935,0.2572,0.709381103515625
32,0.45,34.8749015624323,1e-05,0.18329039284586907,0.5068,0.8665729761123657
33,0.56,15.425292927679378,1e-05,0.14940418952256443,0.4975,0.8574245572090149
34,0.7,7.353433092528645,1e-05,0.13806303956359622,0.4765,0.8558174967765808
35,0.9,3.833985081271189,1e-05,0.11469882197529079,0.4429,0.8407313227653503
36,1.5,1.6206308210819351,1e-05,0.05063794403225182,0.4201,0.8202701807022095
37,3.5,0.5739584205726583,1e-05,0.02790688699930906,0.3088,0.7648346424102783
38,5.3,0.3611518510595663,1e-05,0.04857400327846409,0.2541,0.7123397588729858
39,5.7,0.333327861401164,1e-05,0.0553309740357101,0.252,0.6996924877166748
