,trial_index,arm_name,trial_status,generation_method,accuracy,epsilon,batch_size,noise_multiplier,max_grad_norm,num_epochs
0,0,0_0,COMPLETED,Sobol,0.7873333333333333,0.0727547637201279,113,17.205154603719713,15.275135576725006,28
1,1,1_0,COMPLETED,Sobol,0.8566666666666667,0.08024779908437496,459,15.18404995361343,14.58262752275914,11
2,2,2_0,COMPLETED,Sobol,0.82425,0.07229797275384181,269,21.97791955517605,1.8635508511215448,18
3,3,3_0,COMPLETED,Sobol,0.8753333333333333,0.09058076034200724,613,20.455233990587296,9.598874091170728,26
4,4,4_0,COMPLETED,Sobol,0.8789166666666667,0.09832135910822778,748,16.40322317266837,19.809329748153687,18
5,5,5_0,COMPLETED,Sobol,0.4989166666666667,0.06692729119116328,19,17.080526483617724,19.09334530122578,28
6,6,6_0,COMPLETED,Sobol,0.9288333333333333,0.42769186192587727,444,3.7763856270350513,14.793179136700928,26
7,7,7_0,COMPLETED,Sobol,0.8581666666666666,0.07469341545651279,255,18.315828402154146,7.491132116876543,18
8,8,8_0,COMPLETED,MOO,0.37083333333333335,0.06603104135520196,10,22.357922250204354,7.545449603137465,23
9,9,9_0,COMPLETED,MOO,0.8365,0.07116021327528887,367,24.010263897982778,9.252218197039877,13
10,10,10_0,COMPLETED,MOO,0.8373333333333334,0.07398575099087648,349,24.680374910983247,14.861269927502205,22
11,11,11_0,COMPLETED,MOO,0.7663333333333333,0.06880481945053318,229,22.15319615034459,17.20539981885334,10
12,12,12_0,COMPLETED,MOO,0.7871666666666667,0.07220350318083418,619,25.0,15.850522863607312,10
13,13,13_0,COMPLETED,MOO,0.8569166666666667,0.08433007695820821,373,16.23320912027962,9.364710620435744,20
14,14,14_0,COMPLETED,MOO,0.8250833333333333,0.0757227650499401,350,15.143897704415073,1.0,10
15,15,15_0,COMPLETED,MOO,0.7520833333333333,0.06731544235694092,151,25.0,1.0,10
16,16,16_0,COMPLETED,MOO,0.8260833333333333,0.07261005363098624,219,25.0,20.0,30
17,17,17_0,COMPLETED,MOO,0.7686666666666667,0.06879597253804809,146,25.0,20.0,20
18,18,18_0,COMPLETED,MOO,0.8561666666666666,0.08257773129462917,244,16.325791987467046,12.490936830683612,28
19,19,19_0,COMPLETED,MOO,0.7740833333333333,0.07429194150129115,827,25.0,1.0,10
20,20,20_0,COMPLETED,MOO,0.8689166666666667,0.08198652079018695,502,23.36796941791218,17.556420223709967,27
21,21,21_0,COMPLETED,MOO,0.744,0.070630509283168,468,25.0,1.0,10
22,22,22_0,COMPLETED,MOO,0.8751666666666666,0.08483922165621507,653,25.0,20.0,28
23,23,23_0,COMPLETED,MOO,0.971,85.53915344311872,429,0.3,16.762464253318406,15
24,24,24_0,COMPLETED,MOO,0.8828333333333334,0.11059755441015251,401,8.778460793665012,17.691213994605057,13
25,25,25_0,COMPLETED,MOO,0.8116666666666666,0.07005461308772262,273,20.361373959846546,6.663477852144785,10
26,26,26_0,COMPLETED,MOO,0.9769166666666667,91.84216851743417,445,0.3,5.448535472194068,17
27,27,27_0,COMPLETED,MOO,0.86275,0.0912907498920397,580,19.297705321600464,20.0,25
28,28,28_0,COMPLETED,MOO,0.8604166666666667,0.08940829861127819,756,25.0,14.929677098153366,30
29,29,29_0,COMPLETED,MOO,0.8779166666666667,0.10985429302563515,496,10.560173438745789,8.57815103821607,15
30,30,30_0,COMPLETED,MOO,0.9778333333333333,123.81360184246171,412,0.3,4.702537593960119,29
31,31,31_0,COMPLETED,MOO,0.8853333333333333,0.11155069862302983,322,11.764075774130893,1.0,30
32,32,32_0,COMPLETED,MOO,0.8994166666666666,0.17377137076983684,428,5.136348816764648,11.997433856399107,10
33,33,33_0,COMPLETED,MOO,0.89025,0.1156301510403911,536,14.54601638810815,4.63760971064432,30
34,34,34_0,COMPLETED,MOO,0.89875,0.1706087009241799,420,8.404750246238134,4.099059217708325,27
35,35,35_0,COMPLETED,MOO,0.90275,0.15782551329202632,704,11.178577557295647,20.0,25
36,36,36_0,COMPLETED,MOO,0.7918333333333333,0.07951082391109482,1000,21.861128955181602,20.0,10
37,37,37_0,COMPLETED,MOO,0.8319166666666666,0.07163826636778772,138,13.582418279846697,12.599646847717311,12
38,38,38_0,COMPLETED,MOO,0.876,0.09070922324914432,236,10.585908543525123,6.684938479329306,18
39,39,39_0,COMPLETED,MOO,0.7990833333333334,0.07141550340028893,88,14.265802922531568,1.0,20
40,40,40_0,COMPLETED,MOO,0.8864166666666666,0.12048187547627942,588,9.2428576287485,20.0,12
41,41,41_0,COMPLETED,MOO,0.97725,112.71494429269913,411,0.3,20.0,25
42,42,42_0,COMPLETED,MOO,0.8895,0.12361774792797514,686,15.315541268502507,7.228712202827517,30
43,43,43_0,COMPLETED,MOO,0.90025,0.143731970856934,289,6.841748872474805,20.0,19
44,44,44_0,COMPLETED,MOO,0.9168333333333333,0.260960083572867,356,4.6105874366159965,20.0,20
45,45,45_0,COMPLETED,MOO,0.9811666666666666,139.73732168117155,609,0.3,20.0,30
46,46,46_0,COMPLETED,MOO,0.9638333333333333,66.56577847279851,364,0.3,3.9116529198246184,10
47,47,47_0,COMPLETED,MOO,0.8051666666666667,0.06939453797286041,80,11.9924377645268,1.0,10
48,48,48_0,COMPLETED,MOO,0.9026666666666666,0.24644671831639348,662,6.717103119874306,12.328574689928613,21
49,49,49_0,COMPLETED,MOO,0.83725,0.07267134734972522,120,10.68094517211843,20.0,10
