,noise_multiplier,epsilon,delta,ece,accuracy,auc
0,0.7,1.2734885438532844,0.0001,0.03114804364857307,0.9672690078418003,0.9927144646644592
1,0.9,0.6486234422733239,0.0001,0.03458522418278616,0.9631776338220253,0.9924126863479614
2,1.5,0.2042632649875974,0.0001,0.037849499603262664,0.9589157858847597,0.9914302825927734
3,0.7,1.27349412335704,0.0001,0.03214374585753833,0.9652233208319128,0.9936102628707886
4,0.9,0.6486269723868046,0.0001,0.03434896939110768,0.9623252642345721,0.9926798343658447
5,1.5,0.20426502318305606,0.0001,0.03652992731009358,0.9609614728946472,0.9919061660766602
6,0.7,1.2734383283194848,0.0001,0.031223231359222937,0.9655642686668939,0.9935030937194824
7,0.9,0.6486199121598434,0.0001,0.033547561785415056,0.9640300034094783,0.9926126003265381
8,1.5,0.204270297769432,0.0001,0.03629615464578153,0.9614728946471189,0.9920331239700317
9,0.7,1.273505282364551,0.0001,0.03614692964372328,0.9621547903170815,0.9927597045898438
10,0.9,0.6486234422733239,0.0001,0.03333928023529102,0.9647118990794409,0.9928049445152283
11,1.5,0.20425623220576278,0.0001,0.03524016532113729,0.9618138424821002,0.9916711449623108
12,0.7,1.2734773848457734,0.0001,0.03334988545312348,0.964200477326969,0.9932538866996765
13,0.9,0.6486305025002852,0.0001,0.033798646015658046,0.9643709512444596,0.9929050207138062
14,1.5,0.20425974859668009,0.0001,0.03865430861539464,0.9582338902147971,0.9916518926620483
15,0.7,1.2734885438532844,0.0001,0.034125183064255646,0.9635185816570064,0.9930672645568848
16,0.9,0.6486269723868046,0.0001,0.03587334342212947,0.9618138424821002,0.992800235748291
17,1.5,0.20425447401030414,0.0001,0.038558929563190986,0.9594272076372315,0.9908707141876221
18,0.7,1.2734773848457734,0.0001,0.03399136594279169,0.9636890555744971,0.9932617545127869
19,0.9,0.6486163820463627,0.0001,0.032562249319438685,0.9648823729969315,0.9928770065307617
20,1.5,0.20425799040122145,0.0001,0.036352931270305734,0.9626662120695534,0.9918057322502136
21,0.7,1.2734439078232402,0.0001,0.032314935515274805,0.9657347425843846,0.9933016300201416
22,0.9,0.6486057917059209,0.0001,0.031766461832940185,0.9664166382543471,0.9930364489555359
23,1.5,0.20426150679213873,0.0001,0.03701517017664653,0.9606205250596659,0.9917300939559937
24,0.7,1.2734606463345068,0.0001,0.03443976258089264,0.9631776338220253,0.9926880598068237
25,0.9,0.6486163820463627,0.0001,0.035299569709343476,0.9626662120695534,0.9930218458175659
26,1.5,0.20425799040122145,0.0001,0.03734991255888474,0.9594272076372315,0.9914941787719727
27,0.7,1.2734885438532844,0.0001,0.033413430972803686,0.9636890555744971,0.9928608536720276
28,0.9,0.6485916712519985,0.0001,0.035295522903930246,0.9618138424821002,0.9924052953720093
29,1.5,0.2042632649875974,0.0001,0.03334925575070408,0.9653937947494033,0.9924958944320679
