,noise_multiplier,epsilon,delta,ece,accuracy,auc
0,0.7,2.0089907147111545,0.0001,0.16629721358492697,0.8153333333333334,0.7613017559051514
1,0.9,0.982774874707259,0.0001,0.16767633566056606,0.8146666666666667,0.7583476305007935
2,1.5,0.3556529762521159,0.0001,0.16801412784313266,0.8118333333333333,0.7552670836448669
3,0.7,2.0089907147111545,0.0001,0.16182070235313795,0.8191666666666667,0.7669093608856201
4,0.9,0.982774874707259,0.0001,0.16461984007253,0.817,0.7644657492637634
5,1.5,0.3556529762521159,0.0001,0.16465534388874836,0.8148333333333333,0.7561587691307068
6,0.7,2.0089907147111545,0.0001,0.1640131091937153,0.8171666666666667,0.7555025815963745
7,0.9,0.982774874707259,0.0001,0.16813209588121222,0.815,0.7573274374008179
8,1.5,0.3556529762521159,0.0001,0.1660893272869421,0.8153333333333334,0.7597803473472595
9,0.7,2.0089907147111545,0.0001,0.16523160070808038,0.8171666666666667,0.7614411115646362
10,0.9,0.982774874707259,0.0001,0.1685775228365732,0.8145,0.7608850002288818
11,1.5,0.3556529762521159,0.0001,0.165910659754852,0.8136666666666666,0.7559482455253601
12,0.7,2.0089907147111545,0.0001,0.16655346206500082,0.8138333333333333,0.7639577388763428
13,0.9,0.982774874707259,0.0001,0.16641232611205728,0.8146666666666667,0.7591705918312073
14,1.5,0.3556529762521159,0.0001,0.16563762807293525,0.815,0.7569195628166199
15,0.7,2.0089907147111545,0.0001,0.16751675684644585,0.8146666666666667,0.7643293142318726
16,0.9,0.982774874707259,0.0001,0.16207174951344994,0.8178333333333333,0.7645408511161804
17,1.5,0.3556529762521159,0.0001,0.16705058519166752,0.8155,0.7592483758926392
18,0.7,2.0089907147111545,0.0001,0.17337143804366886,0.8085,0.7566424608230591
19,0.9,0.982774874707259,0.0001,0.16566231029121953,0.8166666666666667,0.7639274597167969
20,1.5,0.3556529762521159,0.0001,0.16745775812505637,0.8146666666666667,0.7508678436279297
21,0.7,2.0089907147111545,0.0001,0.1680087248828414,0.8155,0.7585257887840271
22,0.9,0.982774874707259,0.0001,0.1642565404258261,0.8171666666666667,0.7594361305236816
23,1.5,0.3556529762521159,0.0001,0.16622307176193585,0.8145,0.7564769983291626
24,0.7,2.0089907147111545,0.0001,0.16292885780830477,0.819,0.7628294229507446
25,0.9,0.982774874707259,0.0001,0.16608499650415354,0.815,0.7644972801208496
26,1.5,0.3556529762521159,0.0001,0.1629898691107013,0.815,0.7536430358886719
27,0.7,2.0089907147111545,0.0001,0.16615422715126288,0.8168333333333333,0.7624753713607788
28,0.9,0.982774874707259,0.0001,0.16721121236538383,0.8151666666666667,0.7605621814727783
29,1.5,0.3556529762521159,0.0001,0.16559572940376638,0.8143333333333334,0.7573698163032532
