{"coordinate": [[2.93], [98.1]], "legend": "Papernot et al (2021)"}
{"coordinate": [[2], [94.2]], "legend": "Fu et al (2022)"}
{"coordinate": [[0.2, 5, 8], [90, 95, 97]], "legend": "Abadi et al (2016)"}
