,noise_multiplier,epsilon,delta,ece,accuracy,auc
0,0.45,16.814942646990737,0.0001,0.24074534168579909,0.753531941031941,0.7985302209854126
1,0.56,7.607419035718682,0.0001,0.23822398958431673,0.753531941031941,0.7979198694229126
2,0.9,1.7555541871469158,0.0001,0.2409522061256797,0.753531941031941,0.739802360534668
3,5.3,0.14854690139442783,0.0001,0.22386639240267628,0.753531941031941,0.44301241636276245
