,noise_multiplier,epsilon,delta,ece,accuracy,auc
0,0.45,15.402774941104475,0.0001,0.2412444531528353,0.753531941031941,0.8179552555084229
1,0.56,6.8590872161261585,0.0001,0.23943669663719874,0.753531941031941,0.825832188129425
2,0.7,3.1864106775780647,0.0001,0.2410427336719062,0.753531941031941,0.7984777092933655
3,0.9,1.5540361559918436,0.0001,0.24127853748064512,0.753531941031941,0.8164486885070801
4,1.5,0.6131823995269592,0.0001,0.24141905059968177,0.753531941031941,0.8040462732315063
5,3.5,0.21165705563744716,0.0001,0.24075590508260034,0.753531941031941,0.7269237041473389
6,5.3,0.13190440467608006,0.0001,0.23823328289453338,0.753531941031941,0.6694639921188354
7,5.7,0.12273538794910432,0.0001,0.23737597788160056,0.753531941031941,0.7412631511688232
8,0.45,15.402774941104475,0.0001,0.240125275670001,0.753531941031941,0.8256816864013672
9,0.56,6.8590872161261585,0.0001,0.24040461715275915,0.753531941031941,0.8281817436218262
10,0.7,3.1864106775780647,0.0001,0.24148304939716372,0.753531941031941,0.8129172921180725
11,0.9,1.5540361559918436,0.0001,0.24154945754745563,0.753531941031941,0.8102489709854126
12,1.5,0.6131823995269592,0.0001,0.2413800813650131,0.753531941031941,0.8071396350860596
13,3.5,0.21165705563744716,0.0001,0.24052379905825128,0.753531941031941,0.8151329755783081
14,5.3,0.13190440467608006,0.0001,0.238941695244742,0.753531941031941,0.7522358298301697
15,5.7,0.12273538794910432,0.0001,0.23949839652293414,0.753531941031941,0.6044501066207886
16,0.45,15.402774941104475,0.0001,0.23960553718959918,0.753531941031941,0.8129147291183472
17,0.56,6.8590872161261585,0.0001,0.2413489640862292,0.753531941031941,0.8071607947349548
18,0.7,3.1864106775780647,0.0001,0.23898849968092814,0.753531941031941,0.8057222366333008
19,0.9,1.5540361559918436,0.0001,0.24039962315884433,0.753531941031941,0.7938276529312134
20,1.5,0.6131823995269592,0.0001,0.24203160095088788,0.753531941031941,0.7487839460372925
21,3.5,0.21165705563744716,0.0001,0.24082652743089444,0.753531941031941,0.7801192998886108
22,5.3,0.13190440467608006,0.0001,0.23769405361891927,0.753531941031941,0.6739164590835571
23,5.7,0.12273538794910432,0.0001,0.23873217637041133,0.753531941031941,0.7827814817428589
24,0.45,15.402774941104475,0.0001,0.239660777556893,0.753531941031941,0.8112636208534241
25,0.56,6.8590872161261585,0.0001,0.23931504655798155,0.753531941031941,0.8197417259216309
26,0.7,3.1864106775780647,0.0001,0.24061284504760186,0.753531941031941,0.8032687902450562
27,0.9,1.5540361559918436,0.0001,0.24132931239832037,0.753531941031941,0.8088800311088562
28,1.5,0.6131823995269592,0.0001,0.24198082339935173,0.753531941031941,0.7849055528640747
29,3.5,0.21165705563744716,0.0001,0.2409371033958611,0.753531941031941,0.7149868011474609
30,5.3,0.13190440467608006,0.0001,0.2400863705290463,0.753531941031941,0.7668699026107788
31,5.7,0.12273538794910432,0.0001,0.2376645254750658,0.753531941031941,0.7945279479026794
32,0.45,15.402774941104475,0.0001,0.23835325723955023,0.753531941031941,0.8132861852645874
33,0.56,6.8590872161261585,0.0001,0.23848808490821669,0.753531941031941,0.8261617422103882
34,0.7,3.1864106775780647,0.0001,0.2418986432906755,0.753531941031941,0.7975538969039917
35,0.9,1.5540361559918436,0.0001,0.24194100326350038,0.753531941031941,0.8292096853256226
36,1.5,0.6131823995269592,0.0001,0.2410494650064662,0.753531941031941,0.800671398639679
37,3.5,0.21165705563744716,0.0001,0.23867995763880873,0.753531941031941,0.7980799674987793
38,5.3,0.13190440467608006,0.0001,0.23872482311187931,0.753531941031941,0.6870017647743225
39,5.7,0.12273538794910432,0.0001,0.23882586729663585,0.753531941031941,0.7604751586914062
40,0.45,15.402774941104475,0.0001,0.2386672684878622,0.753531941031941,0.8188591003417969
41,0.56,6.8590872161261585,0.0001,0.23974748694335615,0.753531941031941,0.8131853342056274
42,0.7,3.1864106775780647,0.0001,0.24166526348541456,0.753531941031941,0.8052975535392761
43,0.9,1.5540361559918436,0.0001,0.24173146338285437,0.753531941031941,0.8017523288726807
44,1.5,0.6131823995269592,0.0001,0.24210492412106183,0.753531941031941,0.7841306328773499
45,3.5,0.21165705563744716,0.0001,0.23942499664228542,0.753531941031941,0.7803256511688232
46,5.3,0.13190440467608006,0.0001,0.23887697520625206,0.753531941031941,0.7232730388641357
47,5.7,0.12273538794910432,0.0001,0.23795792508838326,0.753531941031941,0.6310158967971802
48,0.45,15.402774941104475,0.0001,0.23805941651770912,0.753531941031941,0.8234966993331909
49,0.56,6.8590872161261585,0.0001,0.24046170767265113,0.753531941031941,0.8055187463760376
50,0.7,3.1864106775780647,0.0001,0.24142527458693744,0.753531941031941,0.8021228909492493
51,0.9,1.5540361559918436,0.0001,0.24107675417698232,0.753531941031941,0.8019049167633057
52,1.5,0.6131823995269592,0.0001,0.24032566455944843,0.753531941031941,0.8230885863304138
53,3.5,0.21165705563744716,0.0001,0.23970727772518868,0.753531941031941,0.7817211151123047
54,5.3,0.13190440467608006,0.0001,0.23864780949319697,0.753531941031941,0.6327419281005859
55,5.7,0.12273538794910432,0.0001,0.23618818721370724,0.753531941031941,0.6882603168487549
56,0.45,15.402774941104475,0.0001,0.23825938183522818,0.753531941031941,0.8137530088424683
57,0.56,6.8590872161261585,0.0001,0.2388741449271735,0.753531941031941,0.8270594477653503
58,0.7,3.1864106775780647,0.0001,0.24061437045315254,0.753531941031941,0.7808155417442322
59,0.9,1.5540361559918436,0.0001,0.23954597915600268,0.753531941031941,0.8269880414009094
60,1.5,0.6131823995269592,0.0001,0.24154914992761908,0.753531941031941,0.8293774127960205
61,3.5,0.21165705563744716,0.0001,0.24051728781036108,0.753531941031941,0.7911473512649536
62,5.3,0.13190440467608006,0.0001,0.2396603417426207,0.753531941031941,0.7252664566040039
63,5.7,0.12273538794910432,0.0001,0.23713565894536426,0.753531941031941,0.7471951246261597
64,0.45,15.402774941104475,0.0001,0.24076963848470428,0.753531941031941,0.8093858957290649
65,0.56,6.8590872161261585,0.0001,0.23956073650365742,0.753531941031941,0.8318542838096619
66,0.7,3.1864106775780647,0.0001,0.23874157813179742,0.753531941031941,0.8225595951080322
67,0.9,1.5540361559918436,0.0001,0.24174300039781876,0.753531941031941,0.8163394927978516
68,1.5,0.6131823995269592,0.0001,0.2410306083297309,0.753531941031941,0.8117428421974182
69,3.5,0.21165705563744716,0.0001,0.24021172165728794,0.753531941031941,0.769294261932373
70,5.3,0.13190440467608006,0.0001,0.24027640463809222,0.753531941031941,0.5641902685165405
71,5.7,0.12273538794910432,0.0001,0.2361121132078292,0.753531941031941,0.8000681400299072
72,0.45,15.402774941104475,0.0001,0.23834273522732324,0.753531941031941,0.8228933811187744
73,0.56,6.8590872161261585,0.0001,0.2410115826757269,0.753531941031941,0.8055891990661621
74,0.7,3.1864106775780647,0.0001,0.24111848465844596,0.753531941031941,0.8062012791633606
75,0.9,1.5540361559918436,0.0001,0.24234564266393832,0.753531941031941,0.8193297386169434
76,1.5,0.6131823995269592,0.0001,0.24300642603852,0.753531941031941,0.8013123273849487
77,3.5,0.21165705563744716,0.0001,0.24000311832088708,0.753531941031941,0.7940934300422668
78,5.3,0.13190440467608006,0.0001,0.2382990905600434,0.753531941031941,0.7534725666046143
79,5.7,0.12273538794910432,0.0001,0.23833367153445856,0.753531941031941,0.7100000381469727
