,noise_multiplier,epsilon,delta,ece,accuracy,auc
0,0.45,56.046552983128684,1e-05,0.061143239515017656,0.5929203539823009,0.2524334788322449
1,0.56,36.25193842280622,1e-05,0.04418776415090642,0.5929203539823009,0.7855288982391357
2,0.9,15.019181620013033,1e-05,0.09736447207695609,0.5929203539823009,0.8163530230522156
3,5.3,1.299542905565558,1e-05,0.1483962103328874,0.40707964601769914,0.4020116925239563
