,noise_multiplier,epsilon,delta,ece,accuracy,auc
0,0.45,26.96214230691028,1e-05,0.019289283016324033,0.9779,0.9970337152481079
1,0.56,12.319188242247726,1e-05,0.02172011625766742,0.9758,0.9962227940559387
2,0.7,5.923208505846486,1e-05,0.025603131771087632,0.9717,0.995678722858429
3,0.9,3.0049491048968755,1e-05,0.02423412678241712,0.9726,0.9956449270248413
4,1.5,1.24175595125779,1e-05,0.03110378862321354,0.9649,0.9947166442871094
5,3.5,0.438563479097212,1e-05,0.04562512112855909,0.9479,0.9904502630233765
6,5.3,0.2757648177949287,1e-05,0.06096109165251256,0.9314,0.9848856925964355
7,5.7,0.2544759839028364,1e-05,0.050282534468173934,0.9428,0.9888893961906433
8,0.45,26.96214230691028,1e-05,0.020594564834236884,0.9768,0.9967374801635742
9,0.56,12.319188242247726,1e-05,0.022499796226620617,0.9741,0.996130108833313
10,0.7,5.923208505846486,1e-05,0.021808745154738483,0.976,0.9963305592536926
11,0.9,3.0049491048968755,1e-05,0.0241457359671593,0.9732,0.9957903027534485
12,1.5,1.24175595125779,1e-05,0.027670590993762047,0.9687,0.9949947595596313
13,3.5,0.438563479097212,1e-05,0.03687820706963524,0.9577,0.9927935600280762
14,5.3,0.2757648177949287,1e-05,0.05272108809649947,0.9408,0.9877043962478638
15,5.7,0.2544759839028364,1e-05,0.05616541982591154,0.9376,0.9868712425231934
16,0.45,26.96214230691028,1e-05,0.020697394812106956,0.9767,0.9968493580818176
17,0.56,12.319188242247726,1e-05,0.021707232010364307,0.976,0.9958919286727905
18,0.7,5.923208505846486,1e-05,0.023826806521415722,0.9734,0.9965505599975586
19,0.9,3.0049491048968755,1e-05,0.024812796437740137,0.9728,0.995955765247345
20,1.5,1.24175595125779,1e-05,0.028711341968178577,0.9679,0.9945551156997681
21,3.5,0.438563479097212,1e-05,0.03534960237741466,0.96,0.9924742579460144
22,5.3,0.2757648177949287,1e-05,0.048878273105621164,0.9446,0.9894140362739563
23,5.7,0.2544759839028364,1e-05,0.05332940008342261,0.9391,0.9867520332336426
24,0.45,26.96214230691028,1e-05,0.021639893177151502,0.976,0.9965072870254517
25,0.56,12.319188242247726,1e-05,0.023939417985081493,0.9736,0.9964257478713989
26,0.7,5.923208505846486,1e-05,0.025855982494354286,0.9715,0.9955180287361145
27,0.9,3.0049491048968755,1e-05,0.025702364730834776,0.9715,0.9954188466072083
28,1.5,1.24175595125779,1e-05,0.029304729530215203,0.9673,0.9951102137565613
29,3.5,0.438563479097212,1e-05,0.03860689549446086,0.9558,0.9915958642959595
30,5.3,0.2757648177949287,1e-05,0.05510461046993725,0.9376,0.9870284199714661
31,5.7,0.2544759839028364,1e-05,0.04566868284642691,0.9485,0.9905819892883301
32,0.45,26.96214230691028,1e-05,0.021170900607109085,0.9766,0.9968156814575195
33,0.56,12.319188242247726,1e-05,0.021730169352889094,0.9755,0.9963429570198059
34,0.7,5.923208505846486,1e-05,0.025634879723191117,0.9721,0.996627688407898
35,0.9,3.0049491048968755,1e-05,0.02498211786746975,0.9723,0.996015191078186
36,1.5,1.24175595125779,1e-05,0.03010554028749466,0.9667,0.9945080876350403
37,3.5,0.438563479097212,1e-05,0.0415453313589096,0.9524,0.9910602569580078
38,5.3,0.2757648177949287,1e-05,0.04670395923256874,0.9469,0.9898870587348938
39,5.7,0.2544759839028364,1e-05,0.05448486114442336,0.938,0.9874125719070435
