,noise_multiplier,epsilon,delta,ece,accuracy,auc
0,0.45,53.576561225920514,1e-05,0.016498065100307047,0.5929203539823009,0.45262816548347473
1,0.56,34.02644520987167,1e-05,0.09015301212800286,0.5929203539823009,0.7693056464195251
2,0.7,21.809178814601573,1e-05,0.08469009504909009,0.5929203539823009,0.6901362538337708
3,0.9,13.604510196746144,1e-05,0.13537512680070585,0.5929203539823009,0.24659311771392822
4,1.5,5.826628631428623,1e-05,0.12825088638119986,0.5929203539823009,0.3238157033920288
5,3.5,1.8754951832198352,1e-05,0.005085956206363984,0.5929203539823009,0.1349772810935974
6,5.3,1.1486178148831807,1e-05,0.17093491422391577,0.40707964601769914,0.3004542589187622
7,5.7,1.0564939183908084,1e-05,0.04144964334184098,0.5929203539823009,0.08468526601791382
8,0.45,53.576561225920514,1e-05,0.05579156316487133,0.5929203539823009,0.15509410202503204
9,0.56,34.02644520987167,1e-05,0.03014197813726105,0.5929203539823009,0.16060999035835266
10,0.7,21.809178814601573,1e-05,0.03443646325474292,0.5929203539823009,0.2939649522304535
11,0.9,13.604510196746144,1e-05,0.0865530703975036,0.5929203539823009,0.7628163695335388
12,1.5,5.826628631428623,1e-05,0.06493466037564566,0.5929203539823009,0.38351720571517944
13,3.5,1.8754951832198352,1e-05,0.04494760838230094,0.5929203539823009,0.9581440687179565
14,5.3,1.1486178148831807,1e-05,0.04811223893038996,0.5929203539823009,0.6713173389434814
15,5.7,1.0564939183908084,1e-05,0.16597584285567296,0.40707964601769914,0.4826411306858063
16,0.45,53.576561225920514,1e-05,0.030741270137044197,0.5929203539823009,0.27547046542167664
17,0.56,34.02644520987167,1e-05,0.07593798953874975,0.5929203539823009,0.3491239547729492
18,0.7,21.809178814601573,1e-05,0.18285479007569028,0.5929203539823009,0.42050617933273315
19,0.9,13.604510196746144,1e-05,0.044731692402763645,0.5929203539823009,0.2633841633796692
20,1.5,5.826628631428623,1e-05,0.1150790927684412,0.5929203539823009,0.858208954334259
21,3.5,1.8754951832198352,1e-05,0.08082257910112367,0.5929203539823009,0.2569759786128998
22,5.3,1.1486178148831807,1e-05,0.00012246591854947475,0.5929203539823009,0.42050617933273315
23,5.7,1.0564939183908084,1e-05,0.03007697742597193,0.5929203539823009,0.8640493154525757
24,0.45,53.576561225920514,1e-05,0.06189452283150321,0.5929203539823009,0.0431537963449955
25,0.56,34.02644520987167,1e-05,0.06557465760053782,0.5929203539823009,0.9260220527648926
26,0.7,21.809178814601573,1e-05,0.14304241036946796,0.5929203539823009,0.06067488715052605
27,0.9,13.604510196746144,1e-05,0.01767480004150257,0.5929203539823009,0.021739130839705467
28,1.5,5.826628631428623,1e-05,0.12042409339837268,0.5929203539823009,0.4990265965461731
29,3.5,1.8754951832198352,1e-05,0.11761300331723368,0.5929203539823009,0.24659311771392822
30,5.3,1.1486178148831807,1e-05,0.1221426171539104,0.5929203539823009,0.760869562625885
31,5.7,1.0564939183908084,1e-05,0.07482055594435844,0.5929203539823009,0.9737183451652527
32,0.45,53.576561225920514,1e-05,0.1261035789430669,0.5929203539823009,0.7332900762557983
33,0.56,34.02644520987167,1e-05,0.13426553675558717,0.5929203539823009,0.1096690446138382
34,0.7,21.809178814601573,1e-05,0.03326798065573766,0.5929203539823009,0.5619727373123169
35,0.9,13.604510196746144,1e-05,0.06904241521801568,0.5929203539823009,0.08468526601791382
36,1.5,5.826628631428623,1e-05,0.054969145133431985,0.5929203539823009,0.30337443947792053
37,3.5,1.8754951832198352,1e-05,0.06854929016754685,0.5929203539823009,0.6307592391967773
38,5.3,1.1486178148831807,1e-05,0.06358815610936264,0.5929203539823009,0.7219337821006775
39,5.7,1.0564939183908084,1e-05,0.07384959786339151,0.5929203539823009,0.8942245244979858
40,0.45,53.576561225920514,1e-05,0.10471004722392671,0.5929203539823009,0.5444516539573669
41,0.56,34.02644520987167,1e-05,0.1320449504177127,0.5929203539823009,0.8301427364349365
42,0.7,21.809178814601573,1e-05,0.07750772691405972,0.5929203539823009,0.667748212814331
43,0.9,13.604510196746144,1e-05,0.11043178718701929,0.5929203539823009,0.21966256201267242
44,1.5,5.826628631428623,1e-05,0.10306410451905919,0.5929203539823009,0.06099935248494148
45,3.5,1.8754951832198352,1e-05,0.09659413479070744,0.5929203539823009,0.07560025900602341
46,5.3,1.1486178148831807,1e-05,0.0583893350795307,0.5929203539823009,0.3569110929965973
47,5.7,1.0564939183908084,1e-05,0.04592714794969133,0.5929203539823009,0.7352368831634521
48,0.45,53.576561225920514,1e-05,0.07942477422477923,0.5929203539823009,0.8747566342353821
49,0.56,34.02644520987167,1e-05,0.1293026219427058,0.5929203539823009,0.7508111596107483
50,0.7,21.809178814601573,1e-05,0.019577560699091556,0.5929203539823009,0.2014925330877304
51,0.9,13.604510196746144,1e-05,0.11458551356222779,0.5929203539823009,0.907852053642273
52,1.5,5.826628631428623,1e-05,0.047927240354824874,0.5929203539823009,0.9756651520729065
53,3.5,1.8754951832198352,1e-05,0.07163992497773297,0.5929203539823009,0.33322519063949585
54,5.3,1.1486178148831807,1e-05,0.07726703175401262,0.5929203539823009,0.5629461407661438
55,5.7,1.0564939183908084,1e-05,0.04897822479231162,0.5929203539823009,0.09117456525564194
56,0.45,53.576561225920514,1e-05,0.07589351972647473,0.5929203539823009,0.9354315400123596
57,0.56,34.02644520987167,1e-05,0.11887875911408818,0.5929203539823009,0.6641790866851807
58,0.7,21.809178814601573,1e-05,0.11561269201008612,0.5929203539823009,0.7238805890083313
59,0.9,13.604510196746144,1e-05,0.08489424201239526,0.5929203539823009,0.199545755982399
60,1.5,5.826628631428623,1e-05,0.07206621212241926,0.5929203539823009,0.04250486567616463
61,3.5,1.8754951832198352,1e-05,0.08351732724535776,0.5929203539823009,0.24951329827308655
62,5.3,1.1486178148831807,1e-05,0.024926238355383323,0.5929203539823009,0.7014925479888916
63,5.7,1.0564939183908084,1e-05,0.04456735975974424,0.5929203539823009,0.5259571671485901
64,0.45,53.576561225920514,1e-05,0.16916350400553337,0.5929203539823009,0.8228422999382019
65,0.56,34.02644520987167,1e-05,0.16119174461449137,0.5929203539823009,0.2680077850818634
66,0.7,21.809178814601573,1e-05,0.16123000815906352,0.5929203539823009,0.6917585730552673
67,0.9,13.604510196746144,1e-05,0.13206619789115098,0.40707964601769914,0.375730037689209
68,1.5,5.826628631428623,1e-05,0.0430796536724124,0.5929203539823009,0.3274659514427185
69,3.5,1.8754951832198352,1e-05,0.00513352440521786,0.5929203539823009,0.3903309404850006
70,5.3,1.1486178148831807,1e-05,0.04264113069635578,0.5929203539823009,0.15412069857120514
71,5.7,1.0564939183908084,1e-05,0.021670611558762265,0.5929203539823009,0.163530170917511
72,0.45,53.576561225920514,1e-05,0.07809919329871118,0.5929203539823009,0.7128487825393677
73,0.56,34.02644520987167,1e-05,0.0762150651585739,0.5929203539823009,0.5431538224220276
74,0.7,21.809178814601573,1e-05,0.11966870527351847,0.5929203539823009,0.08403634279966354
75,0.9,13.604510196746144,1e-05,0.14518793758037862,0.5929203539823009,0.6421155333518982
76,1.5,5.826628631428623,1e-05,0.04427865490449212,0.5929203539823009,0.24789097905158997
77,3.5,1.8754951832198352,1e-05,0.0030133507948005844,0.5929203539823009,0.9548994302749634
78,5.3,1.1486178148831807,1e-05,0.0817333459854126,0.5929203539823009,0.923669695854187
79,5.7,1.0564939183908084,1e-05,0.07138536514434135,0.5929203539823009,0.14763140678405762
