,noise_multiplier,epsilon,delta,ece,accuracy,auc
0,0.7,2.929774821392804,0.0001,0.07470208928448918,0.9035493827160493,0.9079766273498535
1,0.9,1.468710958203254,0.0001,0.0732745560185041,0.9012345679012346,0.8125335574150085
2,1.5,0.6125472812566883,0.0001,0.08971778464354116,0.8692129629629629,0.9620731472969055
3,0.7,2.929774821392804,0.0001,0.0732627931384393,0.9054783950617284,0.9091698527336121
4,0.9,1.468710958203254,0.0001,0.07320248705829367,0.9004629629629629,0.8537696599960327
5,1.5,0.6125472812566883,0.0001,0.07094992120048876,0.8958333333333334,0.7878555059432983
6,0.7,2.929774821392804,0.0001,0.07161675837396832,0.90625,0.9071664810180664
7,0.9,1.468710958203254,0.0001,0.07910582540487802,0.8985339506172839,0.8787426948547363
8,1.5,0.6125472812566883,0.0001,0.07409455017819078,0.8877314814814815,0.9366862177848816
9,0.7,2.929774821392804,0.0001,0.07169340189868288,0.9085648148148148,0.8883434534072876
10,0.9,1.468710958203254,0.0001,0.08206564289184268,0.8915895061728395,0.8933664560317993
11,1.5,0.6125472812566883,0.0001,0.07073750082449419,0.8931327160493827,0.8314406275749207
12,0.7,2.929774821392804,0.0001,0.07004214062091008,0.9077932098765432,0.9113945960998535
13,0.9,1.468710958203254,0.0001,0.0720738653829437,0.904320987654321,0.8923603892326355
14,1.5,0.6125472812566883,0.0001,0.08275476215338265,0.8838734567901234,0.8512004613876343
15,0.7,2.929774821392804,0.0001,0.06777444070228093,0.9093364197530864,0.9032531976699829
16,0.9,1.468710958203254,0.0001,0.07649169986446697,0.8946759259259259,0.8981658220291138
17,1.5,0.6125472812566883,0.0001,0.07499201046187937,0.8896604938271605,0.8946884274482727
18,0.7,2.929774821392804,0.0001,0.06621482476224129,0.9131944444444444,0.864539623260498
19,0.9,1.468710958203254,0.0001,0.07379017289681931,0.9058641975308642,0.8821033239364624
20,1.5,0.6125472812566883,0.0001,0.08027049424241717,0.8780864197530864,0.9480084180831909
21,0.7,2.929774821392804,0.0001,0.0700508920176897,0.9050925925925926,0.9148979187011719
22,0.9,1.468710958203254,0.0001,0.06663543165281965,0.9077932098765432,0.7983328104019165
23,1.5,0.6125472812566883,0.0001,0.08882929534179929,0.8746141975308642,0.9055392146110535
24,0.7,2.929774821392804,0.0001,0.0844098928120033,0.8950617283950617,0.8847064971923828
25,0.9,1.468710958203254,0.0001,0.07787950546193274,0.8962191358024691,0.902011513710022
26,1.5,0.6125472812566883,0.0001,0.07595710824301215,0.8823302469135802,0.9423766136169434
27,0.7,2.929774821392804,0.0001,0.07124299365153283,0.910108024691358,0.9102733731269836
28,0.9,1.468710958203254,0.0001,0.0692913742666995,0.9050925925925926,0.9113293886184692
29,1.5,0.6125472812566883,0.0001,0.07913333360381697,0.8885030864197531,0.8987151384353638
