,noise_multiplier,epsilon,delta,ece,accuracy,auc
0,0.7,2.0089907147111545,0.0001,0.16626650225461795,0.8161666666666667,0.7508996725082397
1,0.9,0.982774874707259,0.0001,0.16191238348376324,0.8168333333333333,0.758148193359375
2,1.5,0.3556529762521159,0.0001,0.1664056551732406,0.81,0.7544366121292114
3,0.7,2.0089907147111545,0.0001,0.164531074488328,0.8141666666666667,0.7591460943222046
4,0.9,0.982774874707259,0.0001,0.166079203981702,0.8153333333333334,0.7587037086486816
5,1.5,0.3556529762521159,0.0001,0.16732889071265036,0.8116666666666666,0.7432655692100525
6,0.7,2.0089907147111545,0.0001,0.16553920664917626,0.8168333333333333,0.7585035562515259
7,0.9,0.982774874707259,0.0001,0.16421434426719939,0.8145,0.7551983594894409
8,1.5,0.3556529762521159,0.0001,0.1618113552393369,0.8148333333333333,0.7391537427902222
9,0.7,2.0089907147111545,0.0001,0.1680386228113094,0.8141666666666667,0.7600284814834595
10,0.9,0.982774874707259,0.0001,0.1653389157138804,0.8146666666666667,0.7537432909011841
11,1.5,0.3556529762521159,0.0001,0.16441971771129127,0.8153333333333334,0.748466968536377
12,0.7,2.0089907147111545,0.0001,0.16562740105182847,0.8161666666666667,0.7556134462356567
13,0.9,0.982774874707259,0.0001,0.16418840320725667,0.8161666666666667,0.7528010606765747
14,1.5,0.3556529762521159,0.0001,0.16701956764396034,0.8118333333333333,0.7435523867607117
15,0.7,2.0089907147111545,0.0001,0.16668778745966814,0.8121666666666667,0.7558768391609192
16,0.9,0.982774874707259,0.0001,0.16743111231873672,0.8146666666666667,0.7616539001464844
17,1.5,0.3556529762521159,0.0001,0.16581144933136857,0.8103333333333333,0.7452396154403687
18,0.7,2.0089907147111545,0.0001,0.16787659058936183,0.8135,0.7563954591751099
19,0.9,0.982774874707259,0.0001,0.16613387637258853,0.8146666666666667,0.7571445107460022
20,1.5,0.3556529762521159,0.0001,0.16736753944587301,0.8138333333333333,0.7480179667472839
21,0.7,2.0089907147111545,0.0001,0.16809927545441478,0.8155,0.7564147710800171
22,0.9,0.982774874707259,0.0001,0.1637905199404137,0.8163333333333334,0.7552467584609985
23,1.5,0.3556529762521159,0.0001,0.16726941647359314,0.8118333333333333,0.7508713603019714
24,0.7,2.0089907147111545,0.0001,0.16619765923689603,0.816,0.7628722190856934
25,0.9,0.982774874707259,0.0001,0.1652010143397775,0.8128333333333333,0.7502411603927612
26,1.5,0.3556529762521159,0.0001,0.17022441282686546,0.8091666666666667,0.7515792846679688
27,0.7,2.0089907147111545,0.0001,0.16992803886634608,0.8148333333333333,0.7596232891082764
28,0.9,0.982774874707259,0.0001,0.16517669531450827,0.816,0.7571831941604614
29,1.5,0.3556529762521159,0.0001,0.16553987340297655,0.8106666666666666,0.7480735778808594
