,trial_index,arm_name,trial_status,generation_method,accuracy,epsilon,batch_size,noise_multiplier,max_grad_norm,num_epochs
0,0,0_0,COMPLETED,Sobol,0.8845833333333334,0.15845885750029068,113,3.548328387737274,11.518520951271057,15
1,1,1_0,COMPLETED,Sobol,0.8558333333333333,0.22688555666423701,20,1.4226058181375265,1.4608446545898914,15
2,2,2_0,COMPLETED,Sobol,0.9555833333333333,7.829798111423736,113,0.509535220079124,1.441944321617484,15
3,3,3_0,COMPLETED,Sobol,0.9156666666666666,0.2568975084589355,257,3.4798472132533784,1.7108405716717243,15
4,4,4_0,COMPLETED,Sobol,0.9481666666666667,1.620576892036881,265,0.9628292391076684,14.245193617418408,15
5,5,5_0,COMPLETED,Sobol,0.92225,0.4671125610103991,554,3.018131572194397,3.964563390240073,15
6,6,6_0,COMPLETED,MOO,0.9105833333333333,0.3282188235204455,627,4.326347362557621,5.048005578163459,15
7,7,7_0,COMPLETED,MOO,0.9190833333333334,0.5317164553990384,894,3.3946401856424804,1.0,15
8,8,8_0,COMPLETED,MOO,0.8861666666666667,0.118635240032544,102,4.425948722554253,1.0,15
9,9,9_0,COMPLETED,MOO,0.7406666666666667,0.07799892345481119,10,2.9199302145951496,1.0,15
10,10,10_0,COMPLETED,MOO,0.9286666666666666,0.5719523415020482,323,2.000774182996461,1.0,15
11,11,11_0,COMPLETED,MOO,0.9015833333333333,0.23458514731870186,348,4.35909616019446,7.749496090145009,15
12,12,12_0,COMPLETED,MOO,0.90425,0.20460910238465618,363,5.0,1.0,15
13,13,13_0,COMPLETED,MOO,0.9334166666666667,0.5832616470856137,192,1.581985689240946,1.381703985140026,15
14,14,14_0,COMPLETED,MOO,0.9104166666666667,0.33915703909486494,895,5.0,15.0,15
15,15,15_0,COMPLETED,MOO,0.9168333333333333,0.25155334756343767,519,5.0,15.0,15
16,16,16_0,COMPLETED,MOO,0.5881666666666666,0.06974820545580782,10,5.0,15.0,15
17,17,17_0,COMPLETED,MOO,0.89875,0.1769146992589953,231,4.561198021103121,15.0,15
18,18,18_0,COMPLETED,MOO,0.9281666666666667,0.4537447267551037,136,1.647385961172195,1.0,15
19,19,19_0,COMPLETED,MOO,0.8983333333333333,0.13863869927442396,180,5.0,6.3641865715215,15
20,20,20_0,COMPLETED,MOO,0.9033333333333333,0.36237675873961916,1000,5.0,1.0,15
21,21,21_0,COMPLETED,MOO,0.9035833333333333,0.2485485709500635,514,5.0,1.0,15
22,22,22_0,COMPLETED,MOO,0.92175,0.45029746124186665,248,2.147883733502939,11.06229856174753,15
23,23,23_0,COMPLETED,MOO,0.93925,0.9281612611063427,143,1.0694371300125303,1.3760353298538295,15
24,24,24_0,COMPLETED,MOO,0.9209166666666667,0.3878219278991719,476,3.289359501632362,15.0,15
25,25,25_0,COMPLETED,MOO,0.9695,42.124006648426935,1000,0.4,15.0,15
26,26,26_0,COMPLETED,MOO,0.9355,0.8342603674246976,1000,2.472417994019547,15.0,15
27,27,27_0,COMPLETED,MOO,0.9130833333333334,0.3005241897100057,723,5.0,15.0,15
28,28,28_0,COMPLETED,MOO,0.9018333333333334,0.31386476376042466,778,5.0,1.0,15
29,29,29_0,COMPLETED,MOO,0.9653333333333334,42.124006648426935,1000,0.4,6.069268420073831,15
30,30,30_0,COMPLETED,MOO,0.92575,1.2720678243116699,1000,1.7862053333645433,1.0,15
31,31,31_0,COMPLETED,MOO,0.925,0.5952175088949564,802,2.937281310140988,15.0,15
32,32,32_0,COMPLETED,MOO,0.9264166666666667,0.47038731290948455,611,3.1410554660691825,15.0,15
33,33,33_0,COMPLETED,MOO,0.90925,0.19629250695099865,67,2.3200603824569326,1.0,15
34,34,34_0,COMPLETED,MOO,0.9195833333333333,0.3735815167221309,199,2.257522719438759,1.0,15
35,35,35_0,COMPLETED,MOO,0.67925,0.08396046557015835,10,2.428710528916539,15.0,15
36,36,36_0,COMPLETED,MOO,0.93775,0.6362622423739411,343,1.8939028684929404,15.0,15
37,37,37_0,COMPLETED,MOO,0.9351666666666667,0.9071285546842676,915,2.2114120842558598,15.0,15
38,38,38_0,COMPLETED,MOO,0.915,0.4603595719772501,1000,4.062966307997849,15.0,15
39,39,39_0,COMPLETED,MOO,0.8934166666666666,0.16599779059169822,214,4.639667986971338,1.0,15
40,40,40_0,COMPLETED,MOO,0.93175,0.7705550823748216,441,1.8254396212905943,15.0,15
41,41,41_0,COMPLETED,MOO,0.8530833333333333,0.0866550641801723,52,5.0,1.0,15
42,42,42_0,COMPLETED,MOO,0.9485833333333333,0.9717140966657649,190,1.133104722723402,1.0,15
43,43,43_0,COMPLETED,MOO,0.93575,1.345568725844465,1000,1.7150429452685412,15.0,15
44,44,44_0,COMPLETED,MOO,0.9295,0.8888824002772576,682,1.9728873093885575,1.0,15
45,45,45_0,COMPLETED,MOO,0.8938333333333334,0.17872792891802727,95,2.947932410720102,15.0,15
46,46,46_0,COMPLETED,MOO,0.93375,0.8318610894568321,689,2.0894900839919615,15.0,15
47,47,47_0,COMPLETED,MOO,0.94975,1.3502436702402838,192,0.9647805878245953,4.365958978875616,15
48,48,48_0,COMPLETED,MOO,0.8883333333333333,0.1343985822131496,111,4.065680331791332,15.0,15
49,49,49_0,COMPLETED,MOO,0.9384166666666667,1.3089588013710678,881,1.6528643613886338,7.466816624574215,15
