,noise_multiplier,epsilon,delta,ece,accuracy,auc
0,0.7,1.2734885438532844,0.0001,0.02851487327623027,0.9445959768155472,0.985870361328125
1,0.9,0.6486305025002852,0.0001,0.014856589157274794,0.9493692465052846,0.9794830083847046
2,1.5,0.20426150679213873,0.0001,0.03257035080987202,0.9335151721786566,0.9714329242706299
3,0.7,1.273516441372062,0.0001,0.011515163239826879,0.9517558813501534,0.9819706678390503
4,0.9,0.6486199121598434,0.0001,0.019754998785620006,0.9427207637231504,0.9806176424026489
5,1.5,0.204270297769432,0.0001,0.019386504851051128,0.9376065461984316,0.9789832234382629
6,0.7,1.27349412335704,0.0001,0.01859591587577738,0.9490282986703035,0.9837248921394348
7,0.9,0.6486128519328821,0.0001,0.01767903115695646,0.9432321854756223,0.9800283908843994
8,1.5,0.20427381416034932,0.0001,0.012927038615968042,0.9418683941356972,0.9785298109054565
9,0.7,1.2734885438532844,0.0001,0.018253887355784273,0.9405046027957722,0.9815796613693237
10,0.9,0.6486199121598434,0.0001,0.023088031386495123,0.9425502898056597,0.9787189960479736
11,1.5,0.2042667813785147,0.0001,0.01220771077050036,0.9405046027957722,0.9733853340148926
12,0.7,1.27349412335704,0.0001,0.01697819403678899,0.9440845550630753,0.979389488697052
13,0.9,0.6486234422733239,0.0001,0.018578967168287896,0.9410160245482441,0.9795571565628052
14,1.5,0.20425974859668009,0.0001,0.016500656877879744,0.9318104330037504,0.9784456491470337
15,0.7,1.2734997028607955,0.0001,0.021110075892053094,0.9459597681554722,0.9817125797271729
16,0.9,0.6486128519328821,0.0001,0.02319795031467281,0.9377770201159222,0.9783406853675842
17,1.5,0.20425799040122145,0.0001,0.01523524622558739,0.9352199113535629,0.977009654045105
18,0.7,1.273482964349529,0.0001,0.026394469669826583,0.9473235594953971,0.9826138019561768
19,0.9,0.6486375627272464,0.0001,0.01791591167598096,0.9425502898056597,0.9810927510261536
20,1.5,0.20425799040122145,0.0001,0.032894320839022294,0.9352199113535629,0.9753495454788208
21,0.7,1.2734718053420178,0.0001,0.01196986317749497,0.9493692465052846,0.9776168465614319
22,0.9,0.6486163820463627,0.0001,0.02092924823160828,0.9418683941356972,0.977816104888916
23,1.5,0.204270297769432,0.0001,0.017038000469472514,0.936072280941016,0.9787468910217285
24,0.7,1.2734885438532844,0.0001,0.01739009020986981,0.9474940334128878,0.9827758073806763
25,0.9,0.6486128519328821,0.0001,0.023611019641680026,0.9393112853733379,0.9770426154136658
26,1.5,0.20424568303301086,0.0001,0.025651676850673825,0.9359018070235254,0.9755071401596069
27,0.7,1.27349412335704,0.0001,0.018214012930354927,0.9461302420729628,0.9805659055709839
28,0.9,0.6486340326137657,0.0001,0.020333014113921407,0.947834981247869,0.9824643135070801
29,1.5,0.2042632649875974,0.0001,0.029438480819097744,0.9321513808387317,0.9718742370605469
