,noise_multiplier,epsilon,delta,ece,accuracy,auc
0,0.7,8.089807946459814,0.0001,0.1758552748808819,0.8407079646017699,0.9555483460426331
1,0.9,4.276392966312303,0.0001,0.19131732052933853,0.831858407079646,0.940947413444519
2,1.5,1.6731992422694346,0.0001,0.1830929399064157,0.831858407079646,0.9099611043930054
3,0.7,8.084418308866187,0.0001,0.1550509167455994,0.8053097345132744,0.9239130020141602
4,0.9,4.2793538623608915,0.0001,0.17269819935338687,0.831858407079646,0.9412719011306763
5,1.5,1.6731992422694346,0.0001,0.16545017208673254,0.8141592920353983,0.9297534227371216
6,0.7,8.084418308866187,0.0001,0.17043198658301767,0.8495575221238938,0.922939658164978
7,0.9,4.2793538623608915,0.0001,0.2540472139299444,0.8230088495575221,0.9479234218597412
8,1.5,1.6719067369286764,0.0001,0.1595200835603528,0.7522123893805309,0.8475016355514526
9,0.7,8.084418308866187,0.0001,0.16701752619933238,0.8141592920353983,0.9265087842941284
10,0.9,4.2793538623608915,0.0001,0.21341820707363363,0.8584070796460177,0.9521414637565613
11,1.5,1.6731992422694346,0.0001,0.2389812865088472,0.7964601769911505,0.9331603050231934
12,0.7,8.084418308866187,0.0001,0.15421954483057546,0.7964601769911505,0.9094743728637695
13,0.9,4.2793538623608915,0.0001,0.16881306746364694,0.8495575221238938,0.9514925479888916
14,1.5,1.6719067369286764,0.0001,0.2457447394860529,0.7787610619469026,0.8963335752487183
15,0.7,8.089807946459814,0.0001,0.1944654514040567,0.8849557522123894,0.9634977579116821
16,0.9,4.2793538623608915,0.0001,0.19883188367944904,0.8938053097345132,0.9596041440963745
17,1.5,1.6731992422694346,0.0001,0.19059375719686525,0.7876106194690266,0.9205061197280884
18,0.7,8.084418308866187,0.0001,0.185975090328571,0.8584070796460177,0.9477611780166626
19,0.9,4.2793538623608915,0.0001,0.2080434113740921,0.8495575221238938,0.9480856657028198
20,1.5,1.6731992422694346,0.0001,0.2046318418156784,0.7610619469026548,0.9219662547111511
21,0.7,8.079028671272557,0.0001,0.15576243585189886,0.8495575221238938,0.9415963888168335
22,0.9,4.2793538623608915,0.0001,0.1673573707848524,0.8053097345132744,0.9104477763175964
23,1.5,1.6731992422694346,0.0001,0.1890373298552184,0.5929203539823009,0.7172290682792664
24,0.7,8.089807946459814,0.0001,0.1600446900171516,0.8584070796460177,0.9561972618103027
25,0.9,4.2793538623608915,0.0001,0.19436301765716182,0.8141592920353983,0.9406229853630066
26,1.5,1.6731992422694346,0.0001,0.2049542823723987,0.7876106194690266,0.9222907423973083
27,0.7,8.084418308866187,0.0001,0.13591913667927802,0.8053097345132744,0.89974045753479
28,0.9,4.276392966312303,0.0001,0.18789263742159953,0.8938053097345132,0.9557105898857117
29,1.5,1.6731992422694346,0.0001,0.24103128277095018,0.8230088495575221,0.9268332719802856
