,noise_multiplier,epsilon,delta,ece,accuracy,auc
0,0.45,46.75741407031805,1e-05,0.08017298037260773,0.6429,0.9163867831230164
1,0.7,10.929885588194287,1e-05,0.09207523140162227,0.5877,0.8969405293464661
2,0.9,5.77430152340895,1e-05,0.12322863654196263,0.5438,0.8781898617744446
3,1.5,2.3936047689926405,1e-05,0.11886174081414938,0.4879,0.855993926525116
4,5.3,0.5260847235180617,1e-05,0.13396633219346404,0.3467,0.7740589380264282
