,noise_multiplier,epsilon,delta,ece,accuracy,auc
0,0.45,38.339873433614464,1e-05,0.2801184509918094,0.6243,0.9206123352050781
1,0.56,17.28352593495394,1e-05,0.299855401340127,0.5975,0.9099251627922058
2,0.9,4.367965949910764,1e-05,0.312100730869174,0.5628,0.9044054746627808
3,5.3,0.407325018043778,1e-05,0.4108111586749553,0.4447,0.8303165435791016
