,noise_multiplier,epsilon,delta,ece,accuracy,auc
0,0.7,1.2734885438532844,0.0001,0.041998216438420166,0.9531196726900785,0.9861668944358826
1,0.9,0.6486234422733239,0.0001,0.042443226146468144,0.9517558813501534,0.9850200414657593
2,1.5,0.2042632649875974,0.0001,0.05162235087426155,0.9427207637231504,0.9835695624351501
3,0.7,1.27349412335704,0.0001,0.045192392014682226,0.9483464030003409,0.9866865873336792
4,0.9,0.6486269723868046,0.0001,0.042474009169199314,0.9543129901125128,0.9870532155036926
5,1.5,0.20426502318305606,0.0001,0.049268771863966186,0.9461302420729628,0.982874870300293
6,0.7,1.2734383283194848,0.0001,0.047956622244817906,0.9481759290828503,0.9854768514633179
7,0.9,0.6486199121598434,0.0001,0.04789165292854687,0.9476645073303784,0.9846763014793396
8,1.5,0.204270297769432,0.0001,0.04455138379596539,0.9471530855779066,0.9824686050415039
9,0.7,1.273505282364551,0.0001,0.04216754651194843,0.9541425161950222,0.9878829717636108
10,0.9,0.6486234422733239,0.0001,0.040666536527648414,0.9536310944425503,0.9864397048950195
11,1.5,0.20425623220576278,0.0001,0.05013510420384547,0.9463007159904535,0.9822335839271545
12,0.7,1.2734773848457734,0.0001,0.043218486836516745,0.9524377770201159,0.9868513345718384
13,0.9,0.6486305025002852,0.0001,0.04509206528483267,0.951073985680191,0.9848407506942749
14,1.5,0.20425974859668009,0.0001,0.052370448070068285,0.9434026593931129,0.9806365966796875
15,0.7,1.2734885438532844,0.0001,0.037476567492763395,0.9568700988748722,0.988848865032196
16,0.9,0.6486269723868046,0.0001,0.04371767512613434,0.9529491987725878,0.9868663549423218
17,1.5,0.20425447401030414,0.0001,0.050801127381900194,0.9452778724855098,0.9810832738876343
18,0.7,1.2734773848457734,0.0001,0.04172750693286627,0.9551653596999659,0.9881043434143066
19,0.9,0.6486163820463627,0.0001,0.04083790469997712,0.9549948857824753,0.9861478209495544
20,1.5,0.20425799040122145,0.0001,0.047881758136715455,0.9468121377429254,0.9816909432411194
21,0.7,1.2734439078232402,0.0001,0.04205227566567427,0.9515854074326628,0.9872796535491943
22,0.9,0.6486057917059209,0.0001,0.04320352631582072,0.9526082509376066,0.9859539270401001
23,1.5,0.20426150679213873,0.0001,0.049781362193725476,0.946982611660416,0.9827820062637329
24,0.7,1.2734606463345068,0.0001,0.046172699891192895,0.9505625639277191,0.9868141412734985
25,0.9,0.6486163820463627,0.0001,0.03913431833100584,0.9556767814524377,0.9871807098388672
26,1.5,0.20425799040122145,0.0001,0.04805035545982336,0.9480054551653597,0.9820511341094971
27,0.7,1.2734885438532844,0.0001,0.040527804444595514,0.9539720422775315,0.9875118732452393
28,0.9,0.6485916712519985,0.0001,0.04386986903645644,0.9526082509376066,0.9852029085159302
29,1.5,0.2042632649875974,0.0001,0.043538893827293465,0.9538015683600409,0.9828280210494995
