,noise_multiplier,epsilon,delta,ece,accuracy,auc
0,0.45,17.357012635234724,1e-05,0.3385211323821988,0.8726559836345039,0.9571896195411682
1,0.56,8.229087396391208,1e-05,0.2601077606449995,0.7836685987043982,0.949119508266449
2,0.9,1.941566758437919,1e-05,0.17509672215397024,0.6876917831571769,0.9541397094726562
3,5.3,0.16432071427920242,1e-05,0.015044202200593382,0.49232867371292194,0.8536713123321533
