[
  {
    "name": "batch_size",
    "type": "range",
    "value_type": "int",
    "bounds": [128, 512]
},
{
    "name": "per_layer_norm",
    "type": "fixed",
    "value_type": "bool",
    "value": false
},
{
    "name": "max_weight_norm",
    "type": "range",
    "value_type": "float",
    "bounds": [1, 15],
    "digits": 0
},
{
    "name": "num_epochs",
    "type": "fixed",
    "value_type": "int",
    "value": 25
},
{
    "name": "loss_temperature",
    "type": "range",
    "value_type": "float",
    "bounds": [1, 10],
    "digits": 0
},
{
    "name": "delta",
    "type": "fixed",
    "value_type": "float",
    "value": 1e-4
}
]
