,noise_multiplier,epsilon,delta,ece,accuracy,auc
0,0.7,4.029095007931887,0.0001,0.06714481111201978,0.9326388888888889,0.8096989989280701
1,0.9,1.9990029569857342,0.0001,0.0679671926216946,0.9319444444444445,0.7752712368965149
2,1.5,0.8061521062376538,0.0001,0.0680497969190279,0.9319444444444445,0.7905924916267395
3,0.7,4.029095007931887,0.0001,0.0668020656953255,0.9326388888888889,0.8204826712608337
4,0.9,1.9990029569857342,0.0001,0.06522267531189652,0.9347222222222222,0.8518824577331543
5,1.5,0.8061521062376538,0.0001,0.06768249873485828,0.9326388888888889,0.7660295367240906
6,0.7,4.029095007931887,0.0001,0.06792936854892306,0.9319444444444445,0.8392689824104309
7,0.9,1.9990029569857342,0.0001,0.06696649251712695,0.9326388888888889,0.8262268900871277
8,1.5,0.8061521062376538,0.0001,0.06804859903123639,0.9319444444444445,0.7505192160606384
9,0.7,4.029095007931887,0.0001,0.06729715214007426,0.9326388888888889,0.8285654187202454
10,0.9,1.9990029569857342,0.0001,0.0677836075839069,0.9319444444444445,0.7801581025123596
11,1.5,0.8061521062376538,0.0001,0.06805458433098266,0.9319444444444445,0.6923401951789856
12,0.7,4.029095007931887,0.0001,0.06804694164958258,0.9319444444444445,0.772901713848114
13,0.9,1.9990029569857342,0.0001,0.06801490907867747,0.9319444444444445,0.8073923587799072
14,1.5,0.8061521062376538,0.0001,0.0680514556252294,0.9319444444444445,0.7582833766937256
15,0.7,4.029095007931887,0.0001,0.06804087207549125,0.9319444444444445,0.7959950566291809
16,0.9,1.9990029569857342,0.0001,0.06792720237539873,0.9319444444444445,0.7821961045265198
17,1.5,0.8061521062376538,0.0001,0.06804961181349223,0.9319444444444445,0.728039562702179
18,0.7,4.029095007931887,0.0001,0.06725558754470606,0.9326388888888889,0.7895792126655579
19,0.9,1.9990029569857342,0.0001,0.0680520596189631,0.9319444444444445,0.7940713763237
20,1.5,0.8061521062376538,0.0001,0.06805101086695986,0.9319444444444445,0.6571653485298157
21,0.7,4.029095007931887,0.0001,0.06797984813650458,0.9319444444444445,0.7923188209533691
22,0.9,1.9990029569857342,0.0001,0.0679125318096742,0.9319444444444445,0.8423635363578796
23,1.5,0.8061521062376538,0.0001,0.06805382776591506,0.9319444444444445,0.685528576374054
24,0.7,4.029095007931887,0.0001,0.06800972604089306,0.9319444444444445,0.8072373270988464
25,0.9,1.9990029569857342,0.0001,0.06801174667974308,0.9319444444444445,0.7759270668029785
26,1.5,0.8061521062376538,0.0001,0.06805230577786758,0.9319444444444445,0.7646121382713318
27,0.7,4.029095007931887,0.0001,0.06750526643461656,0.9326388888888889,0.817889928817749
28,0.9,1.9990029569857342,0.0001,0.0674692301286592,0.9326388888888889,0.7669796943664551
29,1.5,0.8061521062376538,0.0001,0.06804939413236244,0.9319444444444445,0.7789127826690674
