[
  {
    "name": "batch_size",
    "type": "range",
    "value_type": "int",
    "bounds": [10, 1000]
},
{
    "name": "noise_multiplier",
    "type": "range",
    "value_type": "float",
    "bounds": [0.3, 25]
},
{
    "name": "max_weight_norm",
    "type": "range",
    "value_type": "float",
    "bounds": [1, 20]
},
{
    "name": "num_epochs",
    "type": "range",
    "value_type": "int",
    "bounds": [10, 30]
}
]
