,noise_multiplier,epsilon,delta,ece,accuracy,auc
0,0.45,28.84446372278163,0.0001,0.037974236069491546,0.5418552036199095,0.7287354469299316
1,0.56,15.577544660132624,0.0001,0.02470668921103847,0.497737556561086,0.7144451141357422
2,0.9,4.64682810282468,0.0001,0.015380856205974736,0.497737556561086,0.6191402673721313
3,5.3,0.3605725800189698,0.0001,0.0035915922929798468,0.498868778280543,0.4969671368598938
