,noise_multiplier,epsilon,delta,ece,accuracy,auc
0,0.45,19.516453583504536,1e-05,0.6513999999999998,0.8175,0.9630873799324036
1,0.56,8.482598479318062,1e-05,0.6898999999999997,0.8044,0.9575133323669434
2,0.7,3.924063848026924,1e-05,0.6883999999999998,0.7966,0.9565867185592651
3,0.9,1.9544620109919821,1e-05,0.7109999999999999,0.7899,0.9482625126838684
4,1.5,0.8002025931614115,1e-05,0.7080999999999997,0.7599,0.94634610414505
5,3.5,0.28512059902628667,1e-05,0.7358999999999998,0.7223,0.9183561205863953
6,5.3,0.1830885758336968,1e-05,0.600437996600568,0.6727,0.9245163798332214
7,5.7,0.17199611917380056,1e-05,0.8009999999999997,0.6979,0.9168161153793335
8,0.45,19.516453583504536,1e-05,0.6307727992653845,0.8162,0.9629209637641907
9,0.56,8.482598479318062,1e-05,0.6873999999999998,0.81,0.9626014828681946
10,0.7,3.924063848026924,1e-05,0.6768999999999998,0.7987,0.9601799249649048
11,0.9,1.9544620109919821,1e-05,0.6703999999999998,0.7815,0.9523910284042358
12,1.5,0.8002025931614115,1e-05,0.7221999999999997,0.7665,0.9443355798721313
13,3.5,0.28512059902628667,1e-05,0.7964999999999998,0.7282,0.9320002794265747
14,5.3,0.1830885758336968,1e-05,0.7450094250440595,0.6919,0.9258348345756531
15,5.7,0.17199611917380056,1e-05,0.717128921344876,0.6938,0.9211963415145874
16,0.45,19.516453583504536,1e-05,0.6417999999999997,0.8212,0.9682365655899048
17,0.56,8.482598479318062,1e-05,0.6794999999999998,0.8143,0.9582141041755676
18,0.7,3.924063848026924,1e-05,0.6613999999999998,0.8047,0.9593566060066223
19,0.9,1.9544620109919821,1e-05,0.6538999999999997,0.786,0.952051043510437
20,1.5,0.8002025931614115,1e-05,0.7637999999999998,0.7612,0.9425222277641296
21,3.5,0.28512059902628667,1e-05,0.7632966722965239,0.717,0.9356857538223267
22,5.3,0.1830885758336968,1e-05,0.625534738755226,0.6935,0.9312950968742371
23,5.7,0.17199611917380056,1e-05,0.6643627892881631,0.694,0.9247114062309265
24,0.45,19.516453583504536,1e-05,0.6660999999999998,0.8215,0.9654864072799683
25,0.56,8.482598479318062,1e-05,0.6384999999999998,0.8088,0.9637125730514526
26,0.7,3.924063848026924,1e-05,0.6883999999999998,0.7991,0.9568721055984497
27,0.9,1.9544620109919821,1e-05,0.6356511476427315,0.7851,0.9513571858406067
28,1.5,0.8002025931614115,1e-05,0.6940805215358732,0.757,0.9431570768356323
29,3.5,0.28512059902628667,1e-05,0.8013467595636843,0.7001,0.9240444898605347
30,5.3,0.1830885758336968,1e-05,0.8018914782404898,0.7036,0.9045069813728333
31,5.7,0.17199611917380056,1e-05,0.7247159878551959,0.6611,0.9091453552246094
32,0.45,19.516453583504536,1e-05,0.6700999999999997,0.8233,0.959193229675293
33,0.56,8.482598479318062,1e-05,0.6757999999999997,0.8095,0.9610889554023743
34,0.7,3.924063848026924,1e-05,0.7064999999999998,0.7874,0.9523465037345886
35,0.9,1.9544620109919821,1e-05,0.682222663503885,0.7843,0.950179934501648
36,1.5,0.8002025931614115,1e-05,0.6700879137814042,0.7629,0.9483160972595215
37,3.5,0.28512059902628667,1e-05,0.6831999999999998,0.7228,0.9393752813339233
38,5.3,0.1830885758336968,1e-05,0.7087999999999998,0.6983,0.9255831837654114
39,5.7,0.17199611917380056,1e-05,0.6597709373593328,0.6969,0.9273920059204102
40,0.45,19.516453583504536,1e-05,0.7054999999999998,0.8145,0.9647324681282043
41,0.56,8.482598479318062,1e-05,0.6192999999999997,0.809,0.9600805044174194
42,0.7,3.924063848026924,1e-05,0.6697999999999997,0.7955,0.9550818204879761
43,0.9,1.9544620109919821,1e-05,0.6940999999999997,0.7819,0.9500342607498169
44,1.5,0.8002025931614115,1e-05,0.7201999999999997,0.7494,0.942313015460968
45,3.5,0.28512059902628667,1e-05,0.7348603662371634,0.7286,0.9358972311019897
46,5.3,0.1830885758336968,1e-05,0.7411646097421645,0.694,0.9198226928710938
47,5.7,0.17199611917380056,1e-05,0.7273999999999998,0.6492,0.9256618618965149
48,0.45,19.516453583504536,1e-05,0.6388999999999998,0.8216,0.9636462926864624
49,0.56,8.482598479318062,1e-05,0.6746999999999999,0.8104,0.9556595683097839
50,0.7,3.924063848026924,1e-05,0.6929999999999998,0.7974,0.9554455876350403
51,0.9,1.9544620109919821,1e-05,0.6910999999999998,0.7877,0.9511025547981262
52,1.5,0.8002025931614115,1e-05,0.7725999999999997,0.764,0.942898154258728
53,3.5,0.28512059902628667,1e-05,0.7708583513140678,0.7265,0.9276283383369446
54,5.3,0.1830885758336968,1e-05,0.7760027394175527,0.6941,0.9223065376281738
55,5.7,0.17199611917380056,1e-05,0.7783218262016771,0.6493,0.9099419713020325
56,0.45,19.516453583504536,1e-05,0.6756899039924142,0.8287,0.9633861780166626
57,0.56,8.482598479318062,1e-05,0.6800999999999997,0.8049,0.9592493176460266
58,0.7,3.924063848026924,1e-05,0.8008999999999997,0.7977,0.9567370414733887
59,0.9,1.9544620109919821,1e-05,0.7047999999999998,0.7771,0.9502512216567993
60,1.5,0.8002025931614115,1e-05,0.6573999999999998,0.7616,0.9485308527946472
61,3.5,0.28512059902628667,1e-05,0.7299945271670817,0.7247,0.9379191398620605
62,5.3,0.1830885758336968,1e-05,0.733404961502552,0.697,0.928653359413147
63,5.7,0.17199611917380056,1e-05,0.7677203643679616,0.6663,0.9258849024772644
64,0.45,19.516453583504536,1e-05,0.6275999999999997,0.8196,0.9631309509277344
65,0.56,8.482598479318062,1e-05,0.6888999999999998,0.8032,0.9591557383537292
66,0.7,3.924063848026924,1e-05,0.6464999999999999,0.8078,0.9622648358345032
67,0.9,1.9544620109919821,1e-05,0.6244105249404904,0.7758,0.9546202421188354
68,1.5,0.8002025931614115,1e-05,0.7464999999999997,0.7694,0.9428204298019409
69,3.5,0.28512059902628667,1e-05,0.7192911187171933,0.7269,0.9323956370353699
70,5.3,0.1830885758336968,1e-05,0.8049999999999997,0.6891,0.923087477684021
71,5.7,0.17199611917380056,1e-05,0.7667575982153414,0.7243,0.9259176254272461
72,0.45,19.516453583504536,1e-05,0.7012999999999998,0.8163,0.9620281457901001
73,0.56,8.482598479318062,1e-05,0.6840999999999997,0.806,0.9552558064460754
74,0.7,3.924063848026924,1e-05,0.6860999999999997,0.8084,0.9595364332199097
75,0.9,1.9544620109919821,1e-05,0.633391324353218,0.7878,0.955407440662384
76,1.5,0.8002025931614115,1e-05,0.7409999999999998,0.7626,0.9405301809310913
77,3.5,0.28512059902628667,1e-05,0.7308782011389732,0.7275,0.9407798051834106
78,5.3,0.1830885758336968,1e-05,0.638764229183644,0.6897,0.9352825284004211
79,5.7,0.17199611917380056,1e-05,0.7541545108355583,0.6412,0.911008358001709
