,noise_multiplier,epsilon,delta,ece,accuracy,auc
0,0.45,25.685226970651122,1e-05,0.0071848204731940635,0.9767,0.9971904754638672
1,0.56,12.080128275053173,1e-05,0.009754043143987746,0.9736,0.9969304800033569
2,0.7,5.9032532973508856,1e-05,0.007299411725998015,0.9728,0.9967178106307983
3,0.9,2.9753369910918916,1e-05,0.012528555768728238,0.9649,0.9944708943367004
4,1.5,1.199940301996832,1e-05,0.009562875509262027,0.9632,0.9945688247680664
5,3.5,0.4218483293804649,1e-05,0.011482155817747069,0.9408,0.9895074963569641
6,5.3,0.264981465583293,1e-05,0.019121948114037494,0.9194,0.9831348657608032
7,5.7,0.24449957787257065,1e-05,0.0148852582901716,0.9251,0.9832494854927063
8,0.45,25.685226970651122,1e-05,0.008392179149389223,0.976,0.9973043203353882
9,0.56,12.080128275053173,1e-05,0.01134211871922022,0.9728,0.9969384074211121
10,0.7,5.9032532973508856,1e-05,0.010365669739246295,0.9709,0.9961602091789246
11,0.9,2.9753369910918916,1e-05,0.009108584842085918,0.97,0.9953713417053223
12,1.5,1.199940301996832,1e-05,0.01183569299876691,0.959,0.9942493438720703
13,3.5,0.4218483293804649,1e-05,0.012705904573202177,0.9427,0.9894212484359741
14,5.3,0.264981465583293,1e-05,0.01730341900289057,0.9257,0.9846207499504089
15,5.7,0.24449957787257065,1e-05,0.015378698748350085,0.9241,0.9835109710693359
16,0.45,25.685226970651122,1e-05,0.009194630441069574,0.9755,0.9974112510681152
17,0.56,12.080128275053173,1e-05,0.009980631572008073,0.9737,0.9965168237686157
18,0.7,5.9032532973508856,1e-05,0.010822784376144333,0.971,0.9962911605834961
19,0.9,2.9753369910918916,1e-05,0.010846226158738148,0.9684,0.995024561882019
20,1.5,1.199940301996832,1e-05,0.010626846843957875,0.9615,0.9938341975212097
21,3.5,0.4218483293804649,1e-05,0.014096091766655513,0.9366,0.9871928095817566
22,5.3,0.264981465583293,1e-05,0.01497193603664635,0.9284,0.9866096377372742
23,5.7,0.24449957787257065,1e-05,0.014338514593243592,0.9271,0.9839766621589661
24,0.45,25.685226970651122,1e-05,0.008541624242067395,0.9745,0.9968223571777344
25,0.56,12.080128275053173,1e-05,0.010099710169434555,0.9726,0.9960035085678101
26,0.7,5.9032532973508856,1e-05,0.011320010027289362,0.9697,0.9962061643600464
27,0.9,2.9753369910918916,1e-05,0.010530461320281029,0.9668,0.9942746162414551
28,1.5,1.199940301996832,1e-05,0.010470575186610296,0.9619,0.9945682287216187
29,3.5,0.4218483293804649,1e-05,0.018439530217647514,0.936,0.9880614280700684
30,5.3,0.264981465583293,1e-05,0.015577431729435952,0.9262,0.9852608442306519
31,5.7,0.24449957787257065,1e-05,0.016509065794944707,0.9186,0.983054518699646
32,0.45,25.685226970651122,1e-05,0.009186242699623101,0.9765,0.9973834753036499
33,0.56,12.080128275053173,1e-05,0.010644061875343336,0.9715,0.9961784482002258
34,0.7,5.9032532973508856,1e-05,0.009451643446087874,0.972,0.9961879849433899
35,0.9,2.9753369910918916,1e-05,0.009924928528070509,0.9682,0.9957998394966125
36,1.5,1.199940301996832,1e-05,0.012444435596466049,0.956,0.9923248291015625
37,3.5,0.4218483293804649,1e-05,0.01058385649472472,0.9449,0.9903610944747925
38,5.3,0.264981465583293,1e-05,0.010553208419680618,0.9333,0.9878259897232056
39,5.7,0.24449957787257065,1e-05,0.013686501231789596,0.9313,0.9874922037124634
