,noise_multiplier,epsilon,delta,ece,accuracy,auc
0,0.45,6.571138218091985,0.0001,0.04016671776046378,0.8972042277531538,0.9607934951782227
1,0.56,2.696807281847927,0.0001,0.06404685701527453,0.8987384930105694,0.9597595930099487
2,0.7,1.2734439078232402,0.0001,0.07573450440002694,0.905727923627685,0.9628679156303406
3,0.9,0.6486093218194016,0.0001,0.10978851530813964,0.8862938970337538,0.9508270621299744
4,1.5,0.20425623220576278,0.0001,0.2613914560029989,0.8723150357995226,0.9437456130981445
5,3.5,0.08288573862759016,0.0001,0.2018171467707501,0.5586430276167746,0.9176478385925293
6,5.3,0.07302976123852145,0.0001,0.06513615805583314,0.49266962154790317,0.9579874277114868
7,5.7,0.07202382676854566,0.0001,0.058709338901801356,0.49232867371292194,0.9314868450164795
8,0.45,6.571677460391345,0.0001,0.04805336933495064,0.9019774974428912,0.961105465888977
9,0.56,2.6968991836687595,0.0001,0.036226308826157703,0.8897033753835664,0.95390385389328
10,0.7,1.2734718053420178,0.0001,0.0748075720686764,0.889873849301057,0.9555752277374268
11,0.9,0.6486305025002852,0.0001,0.11028927159005064,0.8818615751789977,0.9565964937210083
12,1.5,0.204270297769432,0.0001,0.1982652333219263,0.8782816229116945,0.9469863176345825
13,3.5,0.08288573862759016,0.0001,0.3325851348899063,0.8527105352881009,0.9339661598205566
14,5.3,0.07302934635122105,0.0001,0.16758231741960167,0.49232867371292194,0.881216287612915
15,5.7,0.07202472123056491,0.0001,0.05866040233008246,0.49232867371292194,0.7923566699028015
16,0.45,6.571461763471601,0.0001,0.04322702457167477,0.8883395840436413,0.9573757648468018
17,0.56,2.696822598818066,0.0001,0.03704723784654948,0.8965223320831913,0.955613911151886
18,0.7,1.273527600379573,0.0001,0.07803059598012484,0.8973747016706444,0.96095210313797
19,0.9,0.6486057917059209,0.0001,0.11977842683655247,0.8905557449710194,0.9555166959762573
20,1.5,0.2042632649875974,0.0001,0.2309294790944019,0.8852710535288101,0.9484513401985168
21,3.5,0.08288866369052736,0.0001,0.05291817674366963,0.5850664848278213,0.9174249172210693
22,5.3,0.07302934635122105,0.0001,0.07986388698682576,0.49232867371292194,0.9157265424728394
23,5.7,0.07202507901537261,0.0001,0.029277403312781336,0.49232867371292194,0.7817486524581909
24,0.45,6.571461763471601,0.0001,0.049179186880436286,0.8963518581657006,0.960573136806488
25,0.56,2.6969145006388984,0.0001,0.05186051268496813,0.8972042277531538,0.9586547613143921
26,0.7,1.2734718053420178,0.0001,0.07738520826749375,0.8903852710535288,0.9565309882164001
27,0.9,0.6486269723868046,0.0001,0.09873572733866713,0.8868053187862257,0.9541515111923218
28,1.5,0.20425095761938683,0.0001,0.24994746421613345,0.8890214797136038,0.9553540349006653
29,3.5,0.0828847636066111,0.0001,0.3696763421686038,0.88799863620866,0.9526011347770691
30,5.3,0.07302996868217168,0.0001,0.07724421159667527,0.49232867371292194,0.9087973237037659
31,5.7,0.07202382676854566,0.0001,0.02736312762649647,0.5102284350494375,0.9311100244522095
32,0.45,6.571461763471601,0.0001,0.032298963373624395,0.9035117627003069,0.9592926502227783
33,0.56,2.696960451549314,0.0001,0.06504959235969404,0.9009546539379475,0.9661346673965454
34,0.7,1.2734606463345068,0.0001,0.05991237443667623,0.8847596317763382,0.9515150785446167
35,0.9,0.6486305025002852,0.0001,0.10600627722784475,0.8891919536310945,0.953917384147644
36,1.5,0.2042667813785147,0.0001,0.25986957761779444,0.8847596317763382,0.9495288729667664
37,3.5,0.0828862261380797,0.0001,0.24261129331739126,0.7727582679849982,0.9330901503562927
38,5.3,0.07302872402027041,0.0001,0.12328557359696729,0.49232867371292194,0.9387202262878418
39,5.7,0.07202525790777645,0.0001,0.12159635628545964,0.6312649164677804,0.9130496978759766
40,0.45,6.571623536161409,0.0001,0.02542976209159688,0.8908966928060007,0.9584491848945618
41,0.56,2.696853232758343,0.0001,0.04829647363607442,0.8832253665189226,0.9556691646575928
42,0.7,1.273482964349529,0.0001,0.07373988588600638,0.8960109103307194,0.9570256471633911
43,0.9,0.6486163820463627,0.0001,0.09465312220485157,0.9055574497101944,0.9542612433433533
44,1.5,0.20426502318305606,0.0001,0.23208298769509922,0.90163654960791,0.958366334438324
45,3.5,0.0828862261380797,0.0001,0.06494424698135776,0.49232867371292194,0.9455397725105286
46,5.3,0.07302934635122105,0.0001,0.06628143306766973,0.49232867371292194,0.9068717360496521
47,5.7,0.07202454233816105,0.0001,0.05999543879814947,0.49232867371292194,0.8591594099998474
48,0.45,6.571569611931474,0.0001,0.05078072699579178,0.8956699624957382,0.9634818434715271
49,0.56,2.696883866698621,0.0001,0.049843738877253865,0.8861234231162632,0.9544458389282227
50,0.7,1.2734718053420178,0.0001,0.07016665817492733,0.8868053187862257,0.9559174180030823
51,0.9,0.6486093218194016,0.0001,0.11715014610900595,0.885782475281282,0.9487321972846985
52,1.5,0.20425974859668009,0.0001,0.2409705619330582,0.8883395840436413,0.9502397179603577
53,3.5,0.08288573862759016,0.0001,0.23765045958210734,0.49232867371292194,0.9050335884094238
54,5.3,0.07302955379487125,0.0001,0.24222673650512183,0.7546880327309922,0.8795843124389648
55,5.7,0.07202382676854566,0.0001,0.3145724094405826,0.49232867371292194,0.9243478178977966
56,0.45,6.571677460391345,0.0001,0.0319618556357633,0.8941356972383225,0.961159884929657
57,0.56,2.696929817609037,0.0001,0.05096385923262362,0.8954994885782476,0.9589658379554749
58,0.7,1.2734773848457734,0.0001,0.06435538609902716,0.8782816229116945,0.9506932497024536
59,0.9,0.6486234422733239,0.0001,0.11266508127444898,0.9045346062052506,0.9585222601890564
60,1.5,0.2042632649875974,0.0001,0.23649884859195877,0.8757245141493352,0.9488744735717773
61,3.5,0.0828862261380797,0.0001,0.06655492437727169,0.5891578588475963,0.9602371454238892
62,5.3,0.07302913890757085,0.0001,0.2943269233328874,0.49232867371292194,0.8678983449935913
63,5.7,0.07202418455335335,0.0001,0.079303946829964,0.49232867371292194,0.9233615398406982
64,0.45,6.571677460391345,0.0001,0.03460405622312065,0.8910671667234913,0.9554281234741211
65,0.56,2.696853232758343,0.0001,0.054731897111716,0.8849301056938288,0.9531711339950562
66,0.7,1.2735220208758176,0.0001,0.058525732909245065,0.8891919536310945,0.9560925960540771
67,0.9,0.6486375627272464,0.0001,0.1468498049633488,0.900272758267985,0.9633188247680664
68,1.5,0.2042667813785147,0.0001,0.20655581414028926,0.8750426184793727,0.9538229703903198
69,3.5,0.0828833010751425,0.0001,0.1255454980814941,0.49232867371292194,0.9006439447402954
70,5.3,0.07302955379487125,0.0001,0.07595399653102769,0.49232867371292194,0.9356957674026489
71,5.7,0.07202490012296875,0.0001,0.020967257620326696,0.5076713262870781,0.8627167344093323
72,0.45,6.571138218091985,0.0001,0.04123539816933639,0.9132287759972724,0.963837742805481
73,0.56,2.6968991836687595,0.0001,0.0375463318908787,0.8914081145584726,0.9563887119293213
74,0.7,1.273482964349529,0.0001,0.06679652702473575,0.8932833276508694,0.9507834911346436
75,0.9,0.6486375627272464,0.0001,0.12209996130118037,0.8953290146607569,0.9637675881385803
76,1.5,0.2042632649875974,0.0001,0.2603972948328082,0.8675417661097852,0.942674458026886
77,3.5,0.0828862261380797,0.0001,0.07713317130354136,0.49232867371292194,0.8908272981643677
78,5.3,0.07302976123852145,0.0001,0.32159870175058586,0.8368564609614729,0.9099360704421997
79,5.7,0.07202472123056491,0.0001,0.054005397095681806,0.49232867371292194,0.8020015954971313
