,noise_multiplier,epsilon,delta,ece,accuracy,auc
0,0.45,9.667345433069121,0.0001,0.031027458767096207,0.7748333333333334,0.6378577947616577
1,0.56,4.073031016627533,0.0001,0.013887820139527303,0.7748333333333334,0.6170822381973267
2,0.7,1.8548852723106186,0.0001,0.021799440311888862,0.7748333333333334,0.5878775119781494
3,0.9,0.9089528886667724,0.0001,0.02328754910578331,0.7748333333333334,0.6176419854164124
4,1.5,0.3203907813538331,0.0001,0.024631773029764478,0.7748333333333334,0.5607234239578247
5,3.5,0.11250312114761529,0.0001,0.008176046202580153,0.7748333333333334,0.552715539932251
6,5.3,0.08557561934290456,0.0001,0.00567843227088452,0.7748333333333334,0.5474583506584167
7,5.7,0.08283917750753608,0.0001,0.02505295303712289,0.7748333333333334,0.5419632196426392
8,0.45,9.667345433069121,0.0001,0.01736501526335877,0.7748333333333334,0.6226751804351807
9,0.56,4.073031016627533,0.0001,0.01306825748085977,0.7748333333333334,0.5966349840164185
10,0.7,1.8548852723106186,0.0001,0.011282840040822832,0.7748333333333334,0.6193681955337524
11,0.9,0.9089528886667724,0.0001,0.012339043247203037,0.7748333333333334,0.6192783713340759
12,1.5,0.3203907813538331,0.0001,0.0207314628014962,0.7748333333333334,0.6004927754402161
13,3.5,0.11250312114761529,0.0001,0.017368103042244926,0.7748333333333334,0.5619877576828003
14,5.3,0.08557561934290456,0.0001,0.013097091798981022,0.7748333333333334,0.5044281482696533
15,5.7,0.08283917750753608,0.0001,0.023876794718205946,0.7748333333333334,0.5792727470397949
16,0.45,9.667345433069121,0.0001,0.0317940677156051,0.7748333333333334,0.6271704435348511
17,0.56,4.073031016627533,0.0001,0.026902628732224324,0.7748333333333334,0.6172599792480469
18,0.7,1.8548852723106186,0.0001,0.01130111796657245,0.7748333333333334,0.6411445140838623
19,0.9,0.9089528886667724,0.0001,0.011282778821885603,0.7748333333333334,0.5713671445846558
20,1.5,0.3203907813538331,0.0001,0.005209663597246034,0.7748333333333334,0.49687421321868896
21,3.5,0.11250312114761529,0.0001,0.015349580024679493,0.7748333333333334,0.5276999473571777
22,5.3,0.08557561934290456,0.0001,0.005648334051171928,0.7748333333333334,0.49964872002601624
23,5.7,0.08283917750753608,0.0001,0.006979107166330045,0.7748333333333334,0.5053211450576782
24,0.45,9.667345433069121,0.0001,0.023262297945717953,0.7748333333333334,0.6272728443145752
25,0.56,4.073031016627533,0.0001,0.010947098607818284,0.7748333333333334,0.6108014583587646
26,0.7,1.8548852723106186,0.0001,0.007219493702054031,0.7748333333333334,0.6056728363037109
27,0.9,0.9089528886667724,0.0001,0.01974739074210325,0.7748333333333334,0.5971713066101074
28,1.5,0.3203907813538331,0.0001,0.02402235157539447,0.7748333333333334,0.5705496072769165
29,3.5,0.11250312114761529,0.0001,0.009158409570654237,0.7748333333333334,0.46953341364860535
30,5.3,0.08557561934290456,0.0001,0.04365759546558062,0.7748333333333334,0.5245271921157837
31,5.7,0.08283917750753608,0.0001,0.017304073872665582,0.7748333333333334,0.48347008228302
32,0.45,9.667345433069121,0.0001,0.011778148529430238,0.7748333333333334,0.6251415610313416
33,0.56,4.073031016627533,0.0001,0.016437800899147977,0.7748333333333334,0.6134607791900635
34,0.7,1.8548852723106186,0.0001,0.01690942079822222,0.7748333333333334,0.6087704300880432
35,0.9,0.9089528886667724,0.0001,0.014450677166382465,0.7748333333333334,0.596502423286438
36,1.5,0.3203907813538331,0.0001,0.013495552462836116,0.7748333333333334,0.5418530702590942
37,3.5,0.11250312114761529,0.0001,0.03167903457830349,0.7748333333333334,0.5163703560829163
38,5.3,0.08557561934290456,0.0001,0.002967395228644219,0.7748333333333334,0.5347432494163513
39,5.7,0.08283917750753608,0.0001,0.008624163905779521,0.7748333333333334,0.42933622002601624
40,0.45,9.667345433069121,0.0001,0.023770545691251754,0.7748333333333334,0.6358414888381958
41,0.56,4.073031016627533,0.0001,0.017414950591822458,0.7748333333333334,0.5999690890312195
42,0.7,1.8548852723106186,0.0001,0.008668561344345408,0.7748333333333334,0.6224712133407593
43,0.9,0.9089528886667724,0.0001,0.015662179619073877,0.7748333333333334,0.5876610279083252
44,1.5,0.3203907813538331,0.0001,0.005131463912626126,0.7748333333333334,0.5305527448654175
45,3.5,0.11250312114761529,0.0001,0.002281477443873881,0.7748333333333334,0.519472599029541
46,5.3,0.08557561934290456,0.0001,0.024542821561296786,0.7748333333333334,0.5472416877746582
47,5.7,0.08283917750753608,0.0001,0.02703912534564737,0.7748333333333334,0.4899598956108093
48,0.45,9.667345433069121,0.0001,0.053322742248574875,0.7748333333333334,0.6476414203643799
49,0.56,4.073031016627533,0.0001,0.02091851636519034,0.7748333333333334,0.6024102568626404
50,0.7,1.8548852723106186,0.0001,0.0021416952038804805,0.7748333333333334,0.5817700624465942
51,0.9,0.9089528886667724,0.0001,0.0014511896297335625,0.7748333333333334,0.5828331708908081
52,1.5,0.3203907813538331,0.0001,0.02082817335426808,0.7748333333333334,0.5774645805358887
53,3.5,0.11250312114761529,0.0001,0.021900795139372358,0.7748333333333334,0.5411080121994019
54,5.3,0.08557561934290456,0.0001,0.025020387833317143,0.7748333333333334,0.47830700874328613
55,5.7,0.08283917750753608,0.0001,0.006467671416699884,0.7748333333333334,0.5516040921211243
56,0.45,9.667345433069121,0.0001,0.021951649735371274,0.7748333333333334,0.6372886896133423
57,0.56,4.073031016627533,0.0001,0.013654313606520505,0.7748333333333334,0.6043095588684082
58,0.7,1.8548852723106186,0.0001,0.03115194174150626,0.7748333333333334,0.6140233278274536
59,0.9,0.9089528886667724,0.0001,0.011840187663833289,0.7748333333333334,0.5734812021255493
60,1.5,0.3203907813538331,0.0001,0.010154082382718716,0.7748333333333334,0.5524574518203735
61,3.5,0.11250312114761529,0.0001,0.003933892639974762,0.7748333333333334,0.5567010641098022
62,5.3,0.08557561934290456,0.0001,0.0293627897699674,0.7748333333333334,0.4218277335166931
63,5.7,0.08283917750753608,0.0001,0.002218214012682452,0.7748333333333334,0.4748777747154236
64,0.45,9.667345433069121,0.0001,0.02970020717382431,0.7748333333333334,0.6217403411865234
65,0.56,4.073031016627533,0.0001,0.020256401742498084,0.7748333333333334,0.6138254404067993
66,0.7,1.8548852723106186,0.0001,0.029850924015045167,0.7748333333333334,0.5821499824523926
67,0.9,0.9089528886667724,0.0001,0.013606567261119678,0.7748333333333334,0.5914733409881592
68,1.5,0.3203907813538331,0.0001,0.007852766744792478,0.7748333333333334,0.5448167324066162
69,3.5,0.11250312114761529,0.0001,0.008530423447489738,0.7748333333333334,0.5817155838012695
70,5.3,0.08557561934290456,0.0001,0.010365763813257208,0.7748333333333334,0.48639407753944397
71,5.7,0.08283917750753608,0.0001,0.0012775179073214603,0.7748333333333334,0.48971349000930786
72,0.45,9.667345433069121,0.0001,0.03148625205457209,0.7748333333333334,0.6293774843215942
73,0.56,4.073031016627533,0.0001,0.01809014634539684,0.7748333333333334,0.6405073404312134
74,0.7,1.8548852723106186,0.0001,0.023154896589616922,0.7748333333333334,0.5912109017372131
75,0.9,0.9089528886667724,0.0001,0.02269975041846433,0.7748333333333334,0.5680036544799805
76,1.5,0.3203907813538331,0.0001,0.005731747038662444,0.7748333333333334,0.5185078382492065
77,3.5,0.11250312114761529,0.0001,0.014374154828488833,0.7748333333333334,0.5532809495925903
78,5.3,0.08557561934290456,0.0001,0.009954718264440696,0.7748333333333334,0.5535229444503784
79,5.7,0.08283917750753608,0.0001,0.008052289848526337,0.7748333333333334,0.5244561433792114
