[
  {
    "name": "batch_size",
    "type": "range",
    "value_type": "int",
    "bounds": [128, 512]
},
{
  "name": "num_groups",
  "type": "choice",
  "value_type": "int",
  "values": [16, 32, 64]
},
{
  "name": "alpha",
  "type": "choice",
  "value_type": "float",
  "values": [0.5, 1.0, 1.5]
},
{
    "name": "noise_multiplier",
    "type": "range",
    "value_type": "float",
    "bounds": [0.4, 6.0],
    "digits": 1,
    "log_scale": true
},
{
    "name": "max_grad_norm",
    "type": "range",
    "value_type": "float",
    "bounds": [1, 10],
    "digits": 0
},
{
    "name": "num_epochs",
    "type": "range",
    "value_type": "int",
    "bounds": [25, 30]
},
{
    "name": "delta",
    "type": "fixed",
    "value_type": "float",
    "value": 1e-5
}
]
