,noise_multiplier,epsilon,delta,ece,accuracy,auc
0,0.7,2.0089907147111545,0.0001,0.22334688273768016,0.7748333333333334,0.6424580812454224
1,0.9,0.982774874707259,0.0001,0.2252954948288987,0.7715,0.5115407109260559
2,1.5,0.3556529762521159,0.0001,0.22221361215622595,0.7748333333333334,0.5616796612739563
3,0.7,2.0089907147111545,0.0001,0.22412960604892873,0.7748333333333334,0.5645509362220764
4,0.9,0.982774874707259,0.0001,0.22129569194490054,0.7748333333333334,0.5949331521987915
5,1.5,0.3556529762521159,0.0001,0.22428036874636714,0.7748333333333334,0.5575452446937561
6,0.7,2.0089907147111545,0.0001,0.22379086556291802,0.7748333333333334,0.549750804901123
7,0.9,0.982774874707259,0.0001,0.2236814691771794,0.7748333333333334,0.486939013004303
8,1.5,0.3556529762521159,0.0001,0.22440823804555807,0.7748333333333334,0.47229379415512085
9,0.7,2.0089907147111545,0.0001,0.22283102643058436,0.775,0.6302374601364136
10,0.9,0.982774874707259,0.0001,0.22373096962794234,0.7748333333333334,0.5574525594711304
11,1.5,0.3556529762521159,0.0001,0.22412313045540333,0.7748333333333334,0.5018093585968018
12,0.7,2.0089907147111545,0.0001,0.22457865253847342,0.7748333333333334,0.5477567911148071
13,0.9,0.982774874707259,0.0001,0.22256472755786064,0.7748333333333334,0.49499908089637756
14,1.5,0.3556529762521159,0.0001,0.2246352127516287,0.7748333333333334,0.5422837734222412
15,0.7,2.0089907147111545,0.0001,0.22393717603969782,0.7738333333333334,0.5463509559631348
16,0.9,0.982774874707259,0.0001,0.22332361187567767,0.7748333333333334,0.5151417255401611
17,1.5,0.3556529762521159,0.0001,0.22323280303500873,0.7748333333333334,0.5260404348373413
18,0.7,2.0089907147111545,0.0001,0.22406406925442604,0.7748333333333334,0.549517810344696
19,0.9,0.982774874707259,0.0001,0.2242106698995273,0.7748333333333334,0.5439222455024719
20,1.5,0.3556529762521159,0.0001,0.22447916992454772,0.7748333333333334,0.5142378807067871
21,0.7,2.0089907147111545,0.0001,0.2234657938080477,0.7748333333333334,0.5537266731262207
22,0.9,0.982774874707259,0.0001,0.22242278422448916,0.7748333333333334,0.5077756643295288
23,1.5,0.3556529762521159,0.0001,0.22312308423250488,0.7748333333333334,0.5158200263977051
24,0.7,2.0089907147111545,0.0001,0.2244205968720957,0.7748333333333334,0.5408919453620911
25,0.9,0.982774874707259,0.0001,0.22419963289560996,0.7748333333333334,0.5374780297279358
26,1.5,0.3556529762521159,0.0001,0.22349906378011605,0.7748333333333334,0.5639897584915161
27,0.7,2.0089907147111545,0.0001,0.2218544435105128,0.7741666666666667,0.5586508512496948
28,0.9,0.982774874707259,0.0001,0.22253115144354738,0.7746666666666666,0.5230463147163391
29,1.5,0.3556529762521159,0.0001,0.22459941518849003,0.7748333333333334,0.553225040435791
