,trial_index,arm_name,trial_status,generation_method,accuracy,epsilon,batch_size,noise_multiplier,max_weight_norm,loss_temperature,num_epochs
0,0,0_0,COMPLETED,Sobol,0.7019166666666666,0.21768488825280688,115,3.4724718928337093,16.088290452957153,1.8964304327964783,25
1,1,1_0,COMPLETED,Sobol,0.5110833333333333,0.35629281147431946,947,6.302528669685126,2.34284711163491,11.759025767445564,25
2,2,2_0,COMPLETED,Sobol,0.5934166666666667,0.6026239876412391,458,2.8328327322378755,10.88964893296361,9.086985284462571,25
3,3,3_0,COMPLETED,Sobol,0.763,25.522857598827276,249,0.4321180419996381,11.116395394317806,8.267382889054716,25
4,4,4_0,COMPLETED,Sobol,0.576,0.83191659303197,544,2.3370266243815423,13.466591725125909,9.580800665542483,25
5,5,5_0,COMPLETED,Sobol,0.26266666666666666,0.083472090829846,17,4.029052222333848,1.4122956544160843,4.455476037226617,25
6,6,6_0,COMPLETED,Sobol,0.52425,0.22703675029424172,218,4.568881154060364,14.278937049210072,11.17953565903008,25
7,7,7_0,COMPLETED,Sobol,0.5765,0.20978103050992378,223,4.9402523946017025,3.4993489971384406,2.8046816093847156,25
8,8,8_0,COMPLETED,MOO,0.5928333333333333,0.24124678173083397,279,4.87278537649937,13.701998196890406,3.14102372339245,25
9,9,9_0,COMPLETED,MOO,0.10625,0.07499173517630114,10,4.267631272158317,18.71126842851829,1.0,25
10,10,10_0,COMPLETED,MOO,0.6045833333333334,0.14665713809323938,57,3.4820299025271506,11.904476186128214,5.177896313031285,25
11,11,11_0,COMPLETED,MOO,0.12583333333333332,0.0754835438135101,10,4.1614935071379655,10.945106434529267,1.7224718120586937,25
12,12,12_0,COMPLETED,MOO,0.6143333333333333,0.222005947754567,150,3.8832386463440223,15.529855064817099,4.777665693261008,25
13,13,13_0,COMPLETED,MOO,0.11016666666666666,0.07001587432831338,10,6.225663281537326,12.421147292854656,5.239032084546377,25
14,14,14_0,COMPLETED,MOO,0.67675,0.3371929785441701,144,2.665442630356597,13.085242463854522,3.3314253822649906,25
15,15,15_0,COMPLETED,MOO,0.6000833333333333,0.14390552079741825,98,4.606807648836282,7.961961763525351,6.5172781731996885,25
16,16,16_0,COMPLETED,MOO,0.6341666666666667,0.12544407751168726,131,6.049687033349018,20.0,1.0,25
17,17,17_0,COMPLETED,MOO,0.565,0.11884187258334325,92,5.386948926689052,20.0,5.137318184463813,25
18,18,18_0,COMPLETED,MOO,0.6579166666666667,0.13272081603598673,117,5.408185165018409,11.551674411747424,1.0,25
19,19,19_0,COMPLETED,MOO,0.7036666666666667,0.25023931141912065,117,3.107698758221366,9.084299069036815,1.0,25
20,20,20_0,COMPLETED,MOO,0.6335833333333334,0.11255562170994773,138,7.0,1.0,1.0,25
21,21,21_0,COMPLETED,MOO,0.5689166666666666,0.0975816843734969,94,7.0,9.491278117964338,1.0,25
22,22,22_0,COMPLETED,MOO,0.55425,0.09620648921220779,90,7.0,1.0,12.0,25
23,23,23_0,COMPLETED,MOO,0.10558333333333333,0.06911034231806323,10,7.0,13.230281668858725,12.0,25
24,24,24_0,COMPLETED,MOO,0.5466666666666666,0.1094064377089303,129,7.0,9.859530646492175,7.496834086104119,25
25,25,25_0,COMPLETED,MOO,0.6966666666666667,0.30946645235146764,100,2.4195376737282874,13.616972562455578,2.5543415534708496,25
26,26,26_0,COMPLETED,MOO,0.70125,0.18432244674365972,121,4.1098489313580835,13.829851232428432,1.0,25
27,27,27_0,COMPLETED,MOO,0.6960833333333334,0.2743776796064375,124,2.953856410445339,15.01274078495307,1.0,25
28,28,28_0,COMPLETED,MOO,0.5276666666666666,0.08639293932501715,61,7.0,1.0,6.702597898507546,25
29,29,29_0,COMPLETED,MOO,0.7595,33.87809993005905,244,0.4,1.0,10.88764223606409,25
30,30,30_0,COMPLETED,MOO,0.54625,0.18219764920275883,351,7.0,20.0,12.0,25
31,31,31_0,COMPLETED,MOO,0.72225,0.23446847307836652,142,3.6027772424546667,1.0,1.0,25
32,32,32_0,COMPLETED,MOO,0.5805,0.3739208689441079,264,3.2527661660436737,1.0,11.633969546199967,25
33,33,33_0,COMPLETED,MOO,0.80625,31.623389651678092,201,0.4,1.0,2.103204116989742,25
34,34,34_0,COMPLETED,MOO,0.7321666666666666,0.446177836391469,173,2.3030554208395984,1.0,1.0,25
35,35,35_0,COMPLETED,MOO,0.7405,0.7639958641653968,201,1.6212687230488219,1.0,4.070403380664136,25
36,36,36_0,COMPLETED,MOO,0.8256666666666667,32.0976903128815,210,0.4,12.350978837261492,1.0,25
37,37,37_0,COMPLETED,MOO,0.73475,0.5803776449758086,209,2.0315704984065652,12.48153924740024,1.0,25
38,38,38_0,COMPLETED,MOO,0.5690833333333334,0.09787624887076976,71,6.064032015827031,1.0,12.0,25
39,39,39_0,COMPLETED,MOO,0.62725,0.22098657071216832,496,7.0,1.0,1.0,25
40,40,40_0,COMPLETED,MOO,0.5639166666666666,0.08739211489568197,56,6.552684329028057,9.017552972142624,12.0,25
41,41,41_0,COMPLETED,MOO,0.6129166666666667,0.20495390591189122,434,7.0,20.0,1.0,25
42,42,42_0,COMPLETED,MOO,0.735,0.36941317768898674,149,2.5095521568129344,1.0,1.0,25
43,43,43_0,COMPLETED,MOO,0.4886666666666667,0.09236591741344846,63,6.275066306909689,1.0,1.0,25
44,44,44_0,COMPLETED,MOO,0.74525,0.598996975713123,227,2.0546931083124393,3.82385510399991,1.0,25
45,45,45_0,COMPLETED,MOO,0.43066666666666664,0.07963752130044052,40,6.908833936863403,7.640989862216752,9.927532949256907,25
46,46,46_0,COMPLETED,MOO,0.7406666666666667,0.6786196671192678,215,1.8206220494837635,5.328158614775827,1.0,25
47,47,47_0,COMPLETED,MOO,0.7961666666666667,32.29716000453715,214,0.4,20.0,5.0258770039942045,25
48,48,48_0,COMPLETED,MOO,0.743,0.788325608778698,232,1.6819494421344063,12.494719873492638,1.0,25
49,49,49_0,COMPLETED,MOO,0.6078333333333333,0.30996032654492134,640,5.893187001249657,20.0,1.0,25
