,noise_multiplier,epsilon,delta,ece,accuracy,auc
0,0.45,17.657800682073706,0.0001,0.2990574026825251,0.7511574074074074,0.7642089128494263
1,0.56,7.697423314171284,0.0001,0.2610793780121538,0.6990740740740741,0.756538987159729
2,0.7,3.5526643551713293,0.0001,0.3351502596964071,0.7762345679012346,0.7415695190429688
3,0.9,1.7647747547167292,0.0001,0.2527948030397112,0.6516203703703703,0.7343724966049194
4,1.5,0.724252607291832,0.0001,0.13525530722360185,0.5999228395061729,0.7398570775985718
5,3.5,0.2509203084833847,0.0001,0.18722513356004597,0.5910493827160493,0.7011934518814087
6,5.3,0.1556729153506228,0.0001,0.09486796351632587,0.3680555555555556,0.6854944825172424
7,5.7,0.14334663725043886,0.0001,0.0883208293996659,0.3587962962962963,0.7069215774536133
8,0.45,17.657800682073706,0.0001,0.22335336243526804,0.6940586419753086,0.7572309374809265
9,0.56,7.697423314171284,0.0001,0.23114978003511083,0.7010030864197531,0.7577337026596069
10,0.7,3.5526643551713293,0.0001,0.16102516053267468,0.4251543209876543,0.7379218339920044
11,0.9,1.7647747547167292,0.0001,0.16967612379632982,0.4402006172839506,0.6870465278625488
12,1.5,0.724252607291832,0.0001,0.22141015528482785,0.5856481481481481,0.7131602168083191
13,3.5,0.2509203084833847,0.0001,0.16948129023988673,0.33796296296296297,0.7090033292770386
14,5.3,0.1556729153506228,0.0001,0.22339768606571497,0.33449074074074076,0.6388289928436279
15,5.7,0.14334663725043886,0.0001,0.1256314242189681,0.4131944444444444,0.7180176973342896
16,0.45,17.657800682073706,0.0001,0.15841221882973192,0.6682098765432098,0.7864099740982056
17,0.56,7.697423314171284,0.0001,0.12397916634555578,0.5991512345679012,0.7450215220451355
18,0.7,3.5526643551713293,0.0001,0.32112542296081414,0.7592592592592593,0.7455443143844604
19,0.9,1.7647747547167292,0.0001,0.10130191578265324,0.5254629629629629,0.7255444526672363
20,1.5,0.724252607291832,0.0001,0.08078963431403227,0.4618055555555556,0.7401658296585083
21,3.5,0.2509203084833847,0.0001,0.02803661686908684,0.4537037037037037,0.7150763273239136
22,5.3,0.1556729153506228,0.0001,0.2851385938026655,0.6697530864197531,0.6755843758583069
23,5.7,0.14334663725043886,0.0001,0.20542485646351621,0.34066358024691357,0.6743389368057251
24,0.45,17.657800682073706,0.0001,0.3334269681025618,0.7858796296296297,0.7598165273666382
25,0.56,7.697423314171284,0.0001,0.10886417046465256,0.6076388888888888,0.7393702268600464
26,0.7,3.5526643551713293,0.0001,0.33208398960162827,0.7905092592592593,0.7647080421447754
27,0.9,1.7647747547167292,0.0001,0.3479576511883441,0.7650462962962963,0.7376644611358643
28,1.5,0.724252607291832,0.0001,0.252233277776359,0.6797839506172839,0.7359183430671692
29,3.5,0.2509203084833847,0.0001,0.09776746625379645,0.46334876543209874,0.6559627652168274
30,5.3,0.1556729153506228,0.0001,0.2044345891609052,0.3368055555555556,0.7390748262405396
31,5.7,0.14334663725043886,0.0001,0.1551961833611131,0.4972993827160494,0.6485580801963806
32,0.45,17.657800682073706,0.0001,0.14397711161937976,0.5540123456790124,0.7627502679824829
33,0.56,7.697423314171284,0.0001,0.39282349447639275,0.8267746913580247,0.7600778341293335
34,0.7,3.5526643551713293,0.0001,0.32052787248459125,0.7592592592592593,0.732818603515625
35,0.9,1.7647747547167292,0.0001,0.3508765855344173,0.7820216049382716,0.7375184297561646
36,1.5,0.724252607291832,0.0001,0.19936390601696422,0.6037808641975309,0.756233274936676
37,3.5,0.2509203084833847,0.0001,0.1637964910241189,0.4097222222222222,0.6404598951339722
38,5.3,0.1556729153506228,0.0001,0.16802237588728283,0.47415123456790126,0.7782248258590698
39,5.7,0.14334663725043886,0.0001,0.1716601616691476,0.5671296296296297,0.6906198263168335
40,0.45,17.657800682073706,0.0001,0.2564411034784568,0.7364969135802469,0.7822163105010986
41,0.56,7.697423314171284,0.0001,0.2925714516874265,0.7584876543209876,0.7772834300994873
42,0.7,3.5526643551713293,0.0001,0.1970050998583988,0.6153549382716049,0.7251417636871338
43,0.9,1.7647747547167292,0.0001,0.2554874339221436,0.6971450617283951,0.7387961149215698
44,1.5,0.724252607291832,0.0001,0.23571330360654327,0.6234567901234568,0.7101861238479614
45,3.5,0.2509203084833847,0.0001,0.16869692490608598,0.5671296296296297,0.6951081156730652
46,5.3,0.1556729153506228,0.0001,0.13583424172283692,0.5208333333333334,0.7442417740821838
47,5.7,0.14334663725043886,0.0001,0.14301101002198308,0.3549382716049383,0.7095627188682556
48,0.45,17.657800682073706,0.0001,0.2912164320479389,0.7256944444444444,0.7435058951377869
49,0.56,7.697423314171284,0.0001,0.22868424445896604,0.6778549382716049,0.739990234375
50,0.7,3.5526643551713293,0.0001,0.12680634061725415,0.5814043209876543,0.7521926760673523
51,0.9,1.7647747547167292,0.0001,0.08150999647001794,0.5543981481481481,0.7483129501342773
52,1.5,0.724252607291832,0.0001,0.26336103821472256,0.6859567901234568,0.7413877248764038
53,3.5,0.2509203084833847,0.0001,0.13060246115941326,0.5358796296296297,0.6867204904556274
54,5.3,0.1556729153506228,0.0001,0.1543673343933475,0.5258487654320988,0.6925838589668274
55,5.7,0.14334663725043886,0.0001,0.21255292519237157,0.5798611111111112,0.6543624997138977
56,0.45,17.657800682073706,0.0001,0.3290100104095024,0.7858796296296297,0.7612696290016174
57,0.56,7.697423314171284,0.0001,0.32397899194908,0.785108024691358,0.7582805752754211
58,0.7,3.5526643551713293,0.0001,0.27294860429555917,0.7345679012345679,0.7267116904258728
59,0.9,1.7647747547167292,0.0001,0.24656722440533796,0.6921296296296297,0.7361071705818176
60,1.5,0.724252607291832,0.0001,0.3263461520021528,0.7218364197530864,0.6868121027946472
61,3.5,0.2509203084833847,0.0001,0.048691493631513025,0.5297067901234568,0.6655173897743225
62,5.3,0.1556729153506228,0.0001,0.22165304939779967,0.6018518518518519,0.7490261197090149
63,5.7,0.14334663725043886,0.0001,0.11230169944925072,0.3645833333333333,0.7008002400398254
64,0.45,17.657800682073706,0.0001,0.10905669148965383,0.5069444444444444,0.7449642419815063
65,0.56,7.697423314171284,0.0001,0.2834594106807569,0.7357253086419753,0.7388883829116821
66,0.7,3.5526643551713293,0.0001,0.198826931439984,0.6203703703703703,0.7140120267868042
67,0.9,1.7647747547167292,0.0001,0.08872302162840413,0.47183641975308643,0.7213588953018188
68,1.5,0.724252607291832,0.0001,0.23317555024254105,0.5814043209876543,0.7337555885314941
69,3.5,0.2509203084833847,0.0001,0.2893958059541973,0.341820987654321,0.710863471031189
70,5.3,0.1556729153506228,0.0001,0.0975499275818835,0.48996913580246915,0.7012611627578735
71,5.7,0.14334663725043886,0.0001,0.1871985896134082,0.5821759259259259,0.7551798820495605
72,0.45,17.657800682073706,0.0001,0.3179295087279177,0.7739197530864198,0.7555843591690063
73,0.56,7.697423314171284,0.0001,0.3532300200658264,0.8090277777777778,0.7670175433158875
74,0.7,3.5526643551713293,0.0001,0.16875597021691963,0.6520061728395061,0.7453333139419556
75,0.9,1.7647747547167292,0.0001,0.31202712203203525,0.751929012345679,0.7412016987800598
76,1.5,0.724252607291832,0.0001,0.15970291059326241,0.5416666666666666,0.7355107069015503
77,3.5,0.2509203084833847,0.0001,0.21207569463661427,0.33449074074074076,0.7017450928688049
78,5.3,0.1556729153506228,0.0001,0.17317825059096023,0.5625,0.7180935740470886
79,5.7,0.14334663725043886,0.0001,0.1408009687093673,0.45023148148148145,0.6637145280838013
